<svg width="25" height="26" viewBox="0 0 25 26" fill="none" xmlns="http://www.w3.org/2000/svg">
<path d="M19.6752 22.5281H3.57617V3.18848H20.4771L20.0998 3.4998C19.8252 3.72751 19.669 4.06766 19.6752 4.42433V22.5281Z" fill="white"/>
<path d="M19.6651 5.90987V4.75421C19.6651 3.87892 20.3747 3.16931 21.25 3.16931H4.32074L3.84904 3.89572C3.68265 4.15109 3.59414 4.44938 3.59432 4.75421V5.90987H1.08017C0.744085 5.90987 0.47168 5.63747 0.47168 5.30138V1.07968C0.47168 0.743597 0.744085 0.471191 1.08017 0.471191H23.2877C23.6238 0.471191 23.8962 0.743597 23.8962 1.07968V5.29666C23.8962 5.63275 23.6238 5.90515 23.2877 5.90515L19.6651 5.90987Z" fill="#417455"/>
<path d="M6.27724 22.0557H5.07912C4.81863 22.0557 4.60742 22.2669 4.60742 22.5274C4.60742 22.7879 4.81863 22.9991 5.07912 22.9991H6.27724C6.53773 22.9991 6.74894 22.7879 6.74894 22.5274C6.74894 22.2669 6.53773 22.0557 6.27724 22.0557Z" fill="#223E60"/>
<path d="M9.23133 22.0557H8.03322C7.77273 22.0557 7.56152 22.2669 7.56152 22.5274C7.56152 22.7879 7.77273 22.9991 8.03322 22.9991H9.23133C9.49183 22.9991 9.70303 22.7879 9.70303 22.5274C9.70303 22.2669 9.49183 22.0557 9.23133 22.0557Z" fill="#223E60"/>
<path d="M12.1845 22.0557H10.9863C10.7259 22.0557 10.5146 22.2669 10.5146 22.5274C10.5146 22.7879 10.7259 22.9991 10.9863 22.9991H12.1845C12.445 22.9991 12.6562 22.7879 12.6562 22.5274C12.6562 22.2669 12.445 22.0557 12.1845 22.0557Z" fill="#223E60"/>
<path d="M15.1366 22.0557H13.9385C13.678 22.0557 13.4668 22.2669 13.4668 22.5274C13.4668 22.7879 13.678 22.9991 13.9385 22.9991H15.1366C15.3971 22.9991 15.6083 22.7879 15.6083 22.5274C15.6083 22.2669 15.3971 22.0557 15.1366 22.0557Z" fill="#223E60"/>
<path d="M18.0891 22.0557H16.9004C16.6399 22.0557 16.4287 22.2669 16.4287 22.5274C16.4287 22.7879 16.6399 22.9991 16.9004 22.9991H18.0985C18.359 22.9991 18.5702 22.7879 18.5702 22.5274C18.5702 22.2669 18.359 22.0557 18.0985 22.0557H18.0891Z" fill="#223E60"/>
<path d="M23.2877 0H1.08019C0.48467 0.00259434 0.00259434 0.48467 0 1.08019V5.29717C0.00259434 5.89269 0.48467 6.37476 1.08019 6.37736H3.12264V22.5283C3.12264 22.7888 3.33385 23 3.59434 23C3.85484 23 4.06604 22.7888 4.06604 22.5283V4.75472C4.06604 4.13992 4.56445 3.64151 5.17925 3.64151H19.5236C19.3084 3.97294 19.1937 4.35955 19.1934 4.75472L19.1651 22.5283C19.1651 22.7888 19.3763 23 19.6368 23C19.8973 23 20.1085 22.7888 20.1085 22.5283L20.1368 6.38208H23.2877C23.8833 6.37948 24.3653 5.89741 24.3679 5.30189V1.08019C24.3653 0.48467 23.8833 0.00259434 23.2877 0ZM23.4245 5.30189C23.4245 5.37742 23.3633 5.43868 23.2877 5.43868H20.1368V4.75472C20.1368 4.13992 20.6352 3.64151 21.25 3.64151H21.7217C21.9822 3.64151 22.1934 3.43031 22.1934 3.16981C22.1934 2.90932 21.9822 2.69811 21.7217 2.69811H2.5283C2.26781 2.69811 2.0566 2.90932 2.0566 3.16981C2.0566 3.43031 2.26781 3.64151 2.5283 3.64151H3.4717C3.25436 3.97217 3.13797 4.35902 3.13679 4.75472V5.43868H1.08019C1.00466 5.43868 0.943397 5.37742 0.943397 5.30189V1.08019C0.943397 1.00466 1.00466 0.943396 1.08019 0.943396H23.2877C23.3633 0.943396 23.4245 1.00466 23.4245 1.08019V5.30189Z" fill="#FF7B79"/>
<path d="M6.5967 10.0557H11.8986C12.1591 10.0557 12.3703 9.8445 12.3703 9.584C12.3703 9.32351 12.1591 9.1123 11.8986 9.1123H6.5967C6.3362 9.1123 6.125 9.32351 6.125 9.584C6.125 9.8445 6.3362 10.0557 6.5967 10.0557Z" fill="#223E60"/>
<path d="M13.9385 10.0557H16.5706C16.8311 10.0557 17.0423 9.8445 17.0423 9.584C17.0423 9.32351 16.8311 9.1123 16.5706 9.1123H13.9385C13.678 9.1123 13.4668 9.32351 13.4668 9.584C13.4668 9.8445 13.678 10.0557 13.9385 10.0557Z" fill="#223E60"/>
<path d="M6.5967 11.9644H11.8986C12.1591 11.9644 12.3703 11.7532 12.3703 11.4927C12.3703 11.2322 12.1591 11.021 11.8986 11.021H6.5967C6.3362 11.021 6.125 11.2322 6.125 11.4927C6.125 11.7532 6.3362 11.9644 6.5967 11.9644Z" fill="#223E60"/>
<path d="M13.9385 11.9644H16.5706C16.8311 11.9644 17.0423 11.7532 17.0423 11.4927C17.0423 11.2322 16.8311 11.021 16.5706 11.021H13.9385C13.678 11.021 13.4668 11.2322 13.4668 11.4927C13.4668 11.7532 13.678 11.9644 13.9385 11.9644Z" fill="#223E60"/>
<path d="M6.69932 6.44785H6.49521V7H6.11816V5.43594H6.73369C6.91917 5.43594 7.06419 5.47712 7.16875 5.55947C7.27331 5.64183 7.32559 5.7582 7.32559 5.90859C7.32559 6.01745 7.30339 6.10768 7.25898 6.1793C7.2153 6.25091 7.14655 6.30892 7.05273 6.35332L7.3793 6.98389V7H6.97539L6.69932 6.44785ZM6.49521 6.15674H6.73369C6.80531 6.15674 6.85902 6.13812 6.89482 6.10088C6.93135 6.06292 6.94961 6.01029 6.94961 5.94297C6.94961 5.87565 6.93135 5.82301 6.89482 5.78506C6.8583 5.74639 6.80459 5.72705 6.73369 5.72705H6.49521V6.15674ZM8.52334 6.33721H7.93037V6.70996H8.63076V7H7.55332V5.43594H8.63291V5.72705H7.93037V6.05684H8.52334V6.33721ZM10.0498 6.47041C10.0448 6.57926 10.0154 6.67559 9.96172 6.75937C9.90801 6.84245 9.83245 6.9069 9.73506 6.95273C9.63838 6.99857 9.52773 7.02148 9.40312 7.02148C9.19759 7.02148 9.03574 6.95452 8.91758 6.82061C8.79941 6.68669 8.74033 6.49762 8.74033 6.25342V6.17607C8.74033 6.02282 8.76683 5.8889 8.81982 5.77432C8.87354 5.65902 8.95052 5.57021 9.05078 5.50791C9.15104 5.44489 9.26706 5.41338 9.39883 5.41338C9.58861 5.41338 9.74115 5.46351 9.85645 5.56377C9.97174 5.66331 10.0373 5.80081 10.053 5.97627H9.67705C9.67419 5.88102 9.6502 5.81263 9.60508 5.77109C9.55996 5.72956 9.49121 5.70879 9.39883 5.70879C9.30501 5.70879 9.23626 5.74388 9.19258 5.81406C9.14889 5.88424 9.12598 5.99632 9.12383 6.15029V6.26094C9.12383 6.4278 9.1446 6.54704 9.18613 6.61865C9.22839 6.69027 9.30072 6.72607 9.40312 6.72607C9.48978 6.72607 9.55602 6.70566 9.60186 6.66484C9.64769 6.62402 9.67204 6.55921 9.6749 6.47041H10.0498ZM11.1981 6.33721H10.6052V6.70996H11.3056V7H10.2281V5.43594H11.3077V5.72705H10.6052V6.05684H11.1981V6.33721ZM11.8609 7H11.485V5.43594H11.8609V7ZM12.5001 6.46934V7H12.123V5.43594H12.7472C12.8668 5.43594 12.9724 5.45814 13.0641 5.50254C13.1564 5.54622 13.2277 5.60889 13.2778 5.69053C13.3287 5.77145 13.3541 5.86348 13.3541 5.9666C13.3541 6.11914 13.2993 6.24124 13.1897 6.33291C13.0809 6.42386 12.9312 6.46934 12.7407 6.46934H12.5001ZM12.5001 6.17822H12.7472C12.8202 6.17822 12.8757 6.15996 12.9137 6.12344C12.9523 6.08691 12.9717 6.03535 12.9717 5.96875C12.9717 5.8957 12.952 5.83734 12.9126 5.79365C12.8732 5.74997 12.8195 5.72777 12.7515 5.72705H12.5001V6.17822ZM14.7839 5.72705H14.3145V7H13.9374V5.72705H13.4766V5.43594H14.7839V5.72705ZM15.8291 7H15.4531V5.43594H15.8291V7ZM17.3975 7H17.0226L16.4683 6.02676V7H16.0912V5.43594H16.4683L17.0215 6.40918V5.43594H17.3975V7Z" fill="#223E60"/>
<g filter="url(#filter0_d)">
<circle cx="12.1232" cy="17.6334" r="4.40833" fill="white"/>
<circle cx="12.1232" cy="17.6334" r="3.90833" stroke="#FF7B79"/>
</g>
<path d="M13.6384 18.0704H9.52744C9.33704 18.0704 9.18256 17.9569 9.18256 17.817C9.18256 17.677 9.33704 17.5636 9.52744 17.5636H13.6383L12.6557 16.8413C12.521 16.7424 12.521 16.5819 12.6557 16.4829C12.7905 16.3839 13.0089 16.3839 13.1436 16.4829L14.7048 17.6308C14.7075 17.6325 14.7098 17.6345 14.7123 17.6364C14.7141 17.6378 14.716 17.6392 14.718 17.6407C14.7241 17.6454 14.7301 17.6501 14.7358 17.6552L14.7391 17.6582C14.7599 17.677 14.7768 17.6978 14.7895 17.7201C14.791 17.7227 14.7918 17.7255 14.7933 17.7282C14.7966 17.7349 14.7997 17.7418 14.8024 17.7487C14.8042 17.7533 14.8058 17.7578 14.8072 17.7624C14.8093 17.7693 14.8108 17.7762 14.812 17.7832C14.8135 17.7907 14.8142 17.7982 14.8147 17.8058C14.8148 17.8095 14.8154 17.8133 14.8154 17.817L14.8151 17.8215C14.8151 17.8271 14.8147 17.8327 14.8139 17.8381C14.8133 17.844 14.8123 17.8497 14.8111 17.8554C14.8097 17.8617 14.8082 17.8679 14.8063 17.8741C14.8041 17.8816 14.8014 17.8889 14.7981 17.8961C14.7961 17.9005 14.7939 17.9048 14.7916 17.9091C14.7883 17.9153 14.7846 17.9214 14.7807 17.9274C14.7779 17.9317 14.775 17.936 14.7719 17.9402C14.766 17.9478 14.7599 17.9551 14.7532 17.9621C14.7496 17.9658 14.7458 17.9695 14.7419 17.973C14.7355 17.979 14.7288 17.9849 14.7216 17.9905C14.7192 17.9923 14.7172 17.9944 14.7148 17.9961L13.1433 19.151C13.0086 19.2498 12.7903 19.2498 12.6556 19.151C12.5209 19.052 12.5209 18.8915 12.6556 18.7925L13.6384 18.0704Z" fill="#417455"/>
<defs>
<filter id="filter0_d" x="5.71484" y="12.2251" width="12.8167" height="12.8167" filterUnits="userSpaceOnUse" color-interpolation-filters="sRGB">
<feFlood flood-opacity="0" result="BackgroundImageFix"/>
<feColorMatrix in="SourceAlpha" type="matrix" values="0 0 0 0 0 0 0 0 0 0 0 0 0 0 0 0 0 0 127 0"/>
<feOffset dy="1"/>
<feGaussianBlur stdDeviation="1"/>
<feColorMatrix type="matrix" values="0 0 0 0 0 0 0 0 0 0 0 0 0 0 0 0 0 0 0.05 0"/>
<feBlend mode="normal" in2="BackgroundImageFix" result="effect1_dropShadow"/>
<feBlend mode="normal" in="SourceGraphic" in2="effect1_dropShadow" result="shape"/>
</filter>
</defs>
</svg>
