<?xml version="1.0" encoding="utf-8"?>
<!-- Generator: Adobe Illustrator 16.0.0, SVG Export Plug-In . SVG Version: 6.00 Build 0)  -->
<!DOCTYPE svg PUBLIC "-//W3C//DTD SVG 1.1//EN" "http://www.w3.org/Graphics/SVG/1.1/DTD/svg11.dtd">
<svg version="1.1" id="Layer_1" xmlns="http://www.w3.org/2000/svg" xmlns:xlink="http://www.w3.org/1999/xlink" x="0px" y="0px"
	 width="512px" height="512px" viewBox="0 0 512 512" enable-background="new 0 0 512 512" xml:space="preserve">
<circle fill="#00E15F" cx="216.027" cy="336" r="10"/>
<path fill="#00E15F" d="M40.027,136v40c0,5.523,4.477,10,10,10h289c5.521,0,10-4.477,10-10v-40c0-5.523-4.479-10-10-10h-289
	C44.504,126,40.027,130.477,40.027,136z M146.027,146h183v20h-183V146z M60.027,146h66v20h-66V146z"/>
<path fill="#00E15F" d="M50.027,226h289c5.521,0,10-4.477,10-10s-4.479-10-10-10h-289c-5.523,0-10,4.477-10,10
	S44.504,226,50.027,226z"/>
<path fill="#00E15F" d="M50.027,266h289c5.521,0,10-4.477,10-10c0-5.523-4.479-10-10-10h-289c-5.523,0-10,4.477-10,10
	C40.027,261.523,44.504,266,50.027,266z"/>
<path fill="#00E15F" d="M50.027,306h166c5.522,0,10-4.477,10-10s-4.478-10-10-10h-166c-5.523,0-10,4.477-10,10
	S44.504,306,50.027,306z"/>
<path fill="#00E15F" d="M50.027,346h126c5.522,0,10-4.477,10-10s-4.478-10-10-10h-126c-5.523,0-10,4.477-10,10
	S44.504,346,50.027,346z"/>
<path fill="#00E15F" d="M136.027,426h51.006c4.646,22.795,24.847,40,48.994,40c27.569,0,50-22.43,50-50s-22.431-50-50-50
	c-24.146,0-44.349,17.205-48.994,40h-51.006c-5.523,0-10,4.477-10,10S130.504,426,136.027,426z M236.027,406h-28.281
	c4.129-11.639,15.244-20,28.281-20c16.541,0,30,13.458,30,30s-13.459,30-30,30c-13.037,0-24.152-8.361-28.281-20h28.281
	c5.521,0,10-4.477,10-10S241.55,406,236.027,406z"/>
<path fill="#00E15F" d="M339.027,80c5.521,0,10-4.477,10-10s-4.479-10-10-10h-20c-5.522,0-10,4.477-10,10s4.478,10,10,10H339.027z"
	/>
<path fill="#00E15F" d="M279.027,80c5.521,0,10-4.477,10-10s-4.479-10-10-10h-20c-5.522,0-10,4.477-10,10s4.478,10,10,10H279.027z"
	/>
<path fill="#00E15F" d="M219.027,80c5.522,0,10-4.477,10-10s-4.478-10-10-10h-20c-5.523,0-10,4.477-10,10s4.477,10,10,10H219.027z"
	/>
<circle fill="#FFFFFF" cx="196.027" cy="502" r="10"/>
<path fill="#FFFFFF" d="M10.027,512h141c5.522,0,10-4.477,10-10s-4.478-10-10-10h-131V100h70c5.523,0,10-4.477,10-10V20h269v282.652
	c-4.537,5.366-8.772,10.079-12.438,13.839l-21.2-21.2c-19.535-19.548-51.173-19.557-70.715-0.002l-14.14,14.14
	c-3.905,3.905-3.905,10.237,0,14.143l118.49,118.49V492h-128c-5.523,0-10,4.477-10,10s4.477,10,10,10h138c5.522,0,10-4.477,10-10
	v-39.938l2.93,2.93c3.904,3.901,10.237,3.904,14.143,0l14.14-14.141c19.538-19.538,19.542-51.171,0-70.712l-21.196-21.197
	c18.969-18.483,60.693-49.185,82.616-58.732c30.772-13.395,41.876-55.234,15.621-81.489c-26.057-26.07-67.71-15.477-81.355,15.383
	c-5.118,11.566-15.722,27.829-26.896,43.067V10c0-5.523-4.479-10-10-10h-289c-2.727,0-5.29,1.15-7.071,2.929l-80,80
	C1.146,84.734,0.027,87.286,0.027,90v412C0.027,507.523,4.504,512,10.027,512L10.027,512z M406.095,394.281
	c11.723,11.722,11.725,30.703,0,42.428l-7.068,7.069L271.748,316.5l7.072-7.071c11.721-11.728,30.696-11.733,42.426,0.002
	L406.095,394.281z M386.865,312.503c17.329-20.901,38.691-50.747,47.348-70.309c7.772-17.577,32.476-25.787,48.923-9.333
	c16.454,16.454,8.095,41.37-9.462,49.011c-24.883,10.838-68.192,42.8-88.776,62.926l-14.165-14.165
	C375.474,325.782,381.013,319.563,386.865,312.503L386.865,312.503z M80.027,34.142V80H34.168L80.027,34.142z"/>
</svg>
