<svg width="21" height="21" viewBox="0 0 21 21" fill="none" xmlns="http://www.w3.org/2000/svg">
<path d="M0 5.27734H19.5875V20.9999H0V5.27734Z" fill="#B1B1B4"/>
<path d="M0 5.27763H19.5878C17.1443 2.588 13.6608 0.905762 9.79392 0.905762C5.92708 0.905762 2.4435 2.588 0 5.27763Z" fill="#393A3D"/>
<path d="M3.26465 9.94775H16.3228V20.9997H3.26465V9.94775Z" fill="#E7E4DD"/>
<path d="M3.26465 16.981H7.18209V20.9998H3.26465V16.981Z" fill="#F5A922"/>
<path d="M3.26465 8.60791H16.3228V11.2872H3.26465V8.60791Z" fill="#FAFCFF"/>
<path d="M3.26465 9.61279H16.3228V10.2826H3.26465V9.61279Z" fill="#F7D881"/>
<path d="M16.9762 8.60807H2.6123V7.26845C2.6123 6.89837 2.90448 6.59863 3.26521 6.59863H16.3233C16.6841 6.59863 16.9762 6.89837 16.9762 7.26845V8.60807Z" fill="#243242"/>
<path d="M6.53027 3.58398H13.0593V4.2538H6.53027V3.58398Z" fill="#A8B0BC"/>
<path d="M6.53027 2.24463H13.0593V2.91444H6.53027V2.24463Z" fill="#A8B0BC"/>
<path d="M3.26465 12.9624H7.18209V16.9813H3.26465V12.9624Z" fill="#F5A922"/>
<path d="M4.57031 12.9624V14.302H5.87612V12.9624" fill="#F7D881"/>
<path d="M4.57031 16.981V18.3206H5.87612V16.981" fill="#F7D881"/>
<path d="M7.18164 16.981H11.0991V20.9998H7.18164V16.981Z" fill="#F5A922"/>
<path d="M8.48828 16.981V18.3206H9.79409V16.981" fill="#F7D881"/>
<path d="M4.24414 15.3062H6.20286V15.976H4.24414V15.3062Z" fill="#F7D881"/>
<path d="M8.16113 19.3252H10.1199V19.995H8.16113V19.3252Z" fill="#F7D881"/>
<path d="M4.24414 19.3252H6.20286V19.995H4.24414V19.3252Z" fill="#F7D881"/>
<path d="M19.5876 11.9575H17.6289V15.3066H19.5876" fill="#243242"/>
<path d="M1.30566 11.9575H1.95857V12.6273H1.30566V11.9575Z" fill="#758190"/>
<path d="M1.30566 13.2964H1.95857V13.9662H1.30566V13.2964Z" fill="#758190"/>
<path d="M1.30566 14.6362H1.95857V15.306H1.30566V14.6362Z" fill="#758190"/>
<path d="M18.6084 13.2964H19.5878V13.9662H18.6084V13.2964Z" fill="#F7D881"/>
<path d="M6.53027 3.58398H13.0593V4.2538H6.53027V3.58398Z" fill="white"/>
<path d="M6.53027 2.24463H13.0593V2.91444H6.53027V2.24463Z" fill="white"/>
<path d="M4.24414 19.3252H6.20286V19.995H4.24414V19.3252Z" fill="black"/>
<path d="M4.24414 15.3062H6.20286V15.976H4.24414V15.3062Z" fill="black"/>
<path d="M8.16113 19.3252H10.1199V19.995H8.16113V19.3252Z" fill="black"/>
<path d="M1.30566 11.9575H1.95857V12.6273H1.30566V11.9575Z" fill="black"/>
<path d="M1.30566 13.2964H1.95857V13.9662H1.30566V13.2964Z" fill="black"/>
<path d="M1.30566 14.6362H1.95857V15.306H1.30566V14.6362Z" fill="black"/>
<path d="M15.9707 0C18.7477 0 21 2.30973 21 5.1574C21 8.00508 18.7477 10.3191 15.9707 10.3191C13.1938 10.3191 10.9414 8.00935 10.9414 5.16167C10.9414 2.314 13.1938 0 15.9707 0Z" fill="#F17400"/>
<path d="M15.2922 8.38737C15.2922 8.49864 15.3802 8.58882 15.4886 8.58882H16.7165C16.8249 8.58882 16.9128 8.49864 16.9128 8.38737V7.99681C17.171 7.92552 17.4179 7.82054 17.6498 7.68346L17.9186 7.9592C17.9554 7.99697 18.0054 8.01822 18.0575 8.01822C18.1095 8.01822 18.1595 7.99697 18.1964 7.95912L19.0642 7.06815C19.1409 6.98946 19.1409 6.8619 19.0642 6.78328L18.7958 6.50786C18.9294 6.26989 19.0317 6.01665 19.1012 5.75177H19.4804C19.5889 5.75177 19.6768 5.66159 19.6768 5.55031V4.29067C19.6768 4.1794 19.5889 4.08921 19.4804 4.08921H19.1011C19.0316 3.82441 18.9294 3.57118 18.7958 3.33321L19.0628 3.05928C19.0996 3.0215 19.1203 2.97019 19.1203 2.91676C19.1202 2.86333 19.0995 2.81202 19.0627 2.77425L18.1941 1.88391C18.1175 1.8053 17.9932 1.8053 17.9165 1.88399L17.6498 2.15761C17.4179 2.02052 17.171 1.91555 16.9128 1.84425V1.45731C16.9128 1.34604 16.8249 1.25586 16.7165 1.25586H15.4886C15.3802 1.25586 15.2922 1.34604 15.2922 1.45731V1.84433C15.0341 1.91555 14.7873 2.02052 14.5553 2.15761L14.2886 1.88399C14.212 1.80538 14.0876 1.8053 14.0109 1.88391L13.1424 2.77433C13.1055 2.8121 13.0848 2.86333 13.0848 2.91676C13.0848 2.97019 13.1055 3.0215 13.1424 3.05928L13.4094 3.33321C13.2758 3.57118 13.1734 3.82433 13.1039 4.08921H12.7254C12.6169 4.08921 12.529 4.1794 12.529 4.29059L12.5283 5.55024C12.5282 5.60367 12.549 5.65498 12.5858 5.69275C12.6226 5.73052 12.6725 5.75177 12.7247 5.75177H13.1039C13.1734 6.01665 13.2758 6.26989 13.4094 6.50786L13.1409 6.78328C13.0643 6.8619 13.0642 6.98946 13.1409 7.06815L14.0088 7.95912C14.0456 7.99689 14.0955 8.01822 14.1476 8.01822H14.1477C14.1998 8.01822 14.2497 7.99697 14.2865 7.9592L14.5552 7.68346C14.7873 7.82054 15.0341 7.92552 15.2922 7.99681V8.38737ZM14.6322 7.25977C14.5545 7.20823 14.4523 7.2194 14.3868 7.28653L14.1477 7.53181L13.5574 6.9258L13.7963 6.68067C13.8617 6.61354 13.8726 6.50864 13.8224 6.42893C13.6443 6.14626 13.5191 5.83644 13.4504 5.50798C13.4309 5.4152 13.351 5.34886 13.2584 5.34886H12.9211L12.9216 4.49213H13.2584C13.351 4.49213 13.4309 4.42587 13.4504 4.33301C13.5191 4.00462 13.6443 3.6948 13.8224 3.41214C13.8726 3.33242 13.8617 3.22752 13.7963 3.1604L13.559 2.91684L14.1497 2.3113L14.3868 2.55462C14.4523 2.62174 14.5545 2.63284 14.6322 2.58137C14.9077 2.39872 15.2097 2.2703 15.5299 2.19979C15.6203 2.1798 15.685 2.09772 15.685 2.00282V1.65877H16.5201V2.00274C16.5201 2.09772 16.5847 2.1798 16.6752 2.19971C16.9953 2.2703 17.2974 2.39864 17.5728 2.58129C17.6505 2.63284 17.7528 2.62174 17.8182 2.55454L18.0554 2.3113L18.6461 2.91684L18.4088 3.16032C18.3433 3.22752 18.3324 3.33242 18.3827 3.41214C18.5607 3.6948 18.6858 4.00462 18.7546 4.33301C18.774 4.42587 18.8541 4.49213 18.9466 4.49213H19.2841V5.34886H18.9466C18.8541 5.34886 18.7741 5.4152 18.7546 5.50798C18.6859 5.83637 18.5607 6.14626 18.3827 6.42885C18.3324 6.50864 18.3433 6.61354 18.4088 6.68067L18.6476 6.92572L18.0574 7.53174L17.8183 7.28653C17.7528 7.21932 17.6505 7.20823 17.5728 7.25977C17.2973 7.44242 16.9953 7.57077 16.6752 7.64136C16.5847 7.66134 16.5201 7.74334 16.5201 7.83833V8.18591H15.685V7.83833C15.685 7.74342 15.6203 7.66134 15.5299 7.64136C15.2098 7.57085 14.9078 7.44242 14.6322 7.25977Z" fill="white"/>
<path d="M17.7247 4.92339C17.7247 4.00551 16.9968 3.25879 16.1021 3.25879C15.2074 3.25879 14.4795 4.00551 14.4795 4.92339C14.4795 5.84127 15.2074 6.58799 16.1021 6.58799C16.9968 6.58799 17.7247 5.84127 17.7247 4.92339ZM14.8722 4.92339C14.8722 4.22766 15.4239 3.6617 16.1021 3.6617C16.7802 3.6617 17.3319 4.22774 17.3319 4.92339C17.3319 5.61904 16.7802 6.18508 16.1021 6.18508C15.4239 6.18508 14.8722 5.61912 14.8722 4.92339Z" fill="white"/>
</svg>
