<svg width="21" height="18" viewBox="0 0 21 18" fill="none" xmlns="http://www.w3.org/2000/svg">
<path d="M9.19284 8.95996L1.39648 4.30542V5.58542L4.42194 11.52L11.2874 14.08V17.4545L19.6656 11.52L11.2874 5.58542V6.98178V8.95996H9.19284Z" fill="url(#paint0_linear)"/>
<path d="M3.33897 11.0611C5.35005 13.0721 7.98045 14.2393 10.8 14.3846V17.4C10.8 17.6243 10.9251 17.8299 11.1242 17.9329C11.3234 18.0359 11.5635 18.0193 11.7465 17.8898L20.2265 11.8898C20.3855 11.7773 20.48 11.5947 20.48 11.4C20.48 11.2053 20.3855 11.0227 20.2265 10.9102L11.7465 4.91021C11.5635 4.78069 11.3234 4.76405 11.1243 4.86713C10.9251 4.97021 10.8 5.17573 10.8 5.40001V8.38277C6.36817 8.12749 2.49953 5.06433 1.26925 0.758408L1.17689 0.435208C1.09485 0.148088 0.81377 -0.0357123 0.51677 0.00584774C0.22045 0.0473678 9.76565e-06 0.300848 9.76565e-06 0.600048V3.00005C-3.02344e-05 6.04505 1.18577 8.90785 3.33897 11.0611V11.0611ZM7.62849 8.97845C8.84333 9.39089 10.1122 9.60001 11.4 9.60001C11.7313 9.60001 12 9.33137 12 9.00001V6.55953L18.8412 11.4L12 16.2405V13.8C12 13.4687 11.7313 13.2 11.4 13.2C6.01561 13.2 1.59233 9.00657 1.22469 3.71405C2.64521 6.18465 4.92397 8.06025 7.62849 8.97845V8.97845Z" fill="#4F4F4F"/>
<defs>
<linearGradient id="paint0_linear" x1="10.531" y1="17.4545" x2="10.531" y2="4.30544" gradientUnits="userSpaceOnUse">
<stop stop-color="#FD3A84"/>
<stop offset="1" stop-color="#FFA68D"/>
</linearGradient>
</defs>
</svg>
