<svg width="76" height="76" viewBox="0 0 76 76" fill="none" xmlns="http://www.w3.org/2000/svg">
<circle cx="38" cy="38" r="38" fill="white"/>
<path d="M43.8541 19.5V34.9166C43.8541 36.2708 42.7083 37.4166 41.3541 37.4166H28.125L18.3333 42.5207V37.4165H17.5C16.1458 37.4165 15 36.2707 15 34.9165V19.5C15 18.1458 16.1458 17 17.5 17H41.4582C42.8124 17 43.8541 18.1458 43.8541 19.5Z" fill="#F3705A"/>
<path d="M21.7708 29.9166C23.2665 29.9166 24.4791 28.704 24.4791 27.2083C24.4791 25.7125 23.2665 24.5 21.7708 24.5C20.275 24.5 19.0625 25.7125 19.0625 27.2083C19.0625 28.704 20.275 29.9166 21.7708 29.9166Z" fill="white"/>
<path d="M29.4793 29.9166C30.975 29.9166 32.1876 28.704 32.1876 27.2083C32.1876 25.7125 30.975 24.5 29.4793 24.5C27.9835 24.5 26.771 25.7125 26.771 27.2083C26.771 28.704 27.9835 29.9166 29.4793 29.9166Z" fill="white"/>
<path d="M37.1873 29.9166C38.683 29.9166 39.8956 28.704 39.8956 27.2083C39.8956 25.7125 38.683 24.5 37.1873 24.5C35.6915 24.5 34.479 25.7125 34.479 27.2083C34.479 28.704 35.6915 29.9166 37.1873 29.9166Z" fill="white"/>
<path d="M36.1455 25.6455V40.9579C36.1455 42.3121 37.2913 43.4579 38.6455 43.4579H51.9788L61.7704 48.5621V43.4579H62.4996C63.8538 43.4579 64.9996 42.3121 64.9996 40.9579V25.6455C64.9996 24.2913 63.8538 23.1455 62.4996 23.1455H38.5414C37.1872 23.1455 36.1455 24.2914 36.1455 25.6455Z" fill="#FFD15C"/>
<path d="M58.229 36.0626C59.7248 36.0626 60.9373 34.85 60.9373 33.3543C60.9373 31.8585 59.7248 30.646 58.229 30.646C56.7333 30.646 55.5208 31.8585 55.5208 33.3543C55.5208 34.85 56.7333 36.0626 58.229 36.0626Z" fill="white"/>
<path d="M50.5208 36.0626C52.0165 36.0626 53.2291 34.85 53.2291 33.3543C53.2291 31.8585 52.0165 30.646 50.5208 30.646C49.025 30.646 47.8125 31.8585 47.8125 33.3543C47.8125 34.85 49.025 36.0626 50.5208 36.0626Z" fill="white"/>
<path d="M42.8125 36.0631C44.3083 36.0631 45.5208 34.8505 45.5208 33.3548C45.5208 31.859 44.3083 30.6465 42.8125 30.6465C41.3168 30.6465 40.1042 31.859 40.1042 33.3548C40.1042 34.8505 41.3168 36.0631 42.8125 36.0631Z" fill="white"/>
<path d="M51.2501 44.0835V59.5001C51.2501 60.8543 50.1043 62.0001 48.7501 62.0001H40.5209L36.7709 67.0001L33.021 61.8959H24.896C23.5418 61.8959 22.396 60.7501 22.396 59.3959V44.0835C22.396 42.7293 23.5418 41.5835 24.896 41.5835H48.8542C50.2084 41.5835 51.2501 42.7294 51.2501 44.0835Z" fill="#66C6B9"/>
<path d="M44.479 54.4996C45.9748 54.4996 47.1873 53.287 47.1873 51.7913C47.1873 50.2956 45.9748 49.083 44.479 49.083C42.9833 49.083 41.7708 50.2956 41.7708 51.7913C41.7708 53.287 42.9833 54.4996 44.479 54.4996Z" fill="white"/>
<path d="M36.8748 54.4996C38.3705 54.4996 39.5831 53.287 39.5831 51.7913C39.5831 50.2956 38.3705 49.083 36.8748 49.083C35.379 49.083 34.1665 50.2956 34.1665 51.7913C34.1665 53.287 35.379 54.4996 36.8748 54.4996Z" fill="white"/>
<path d="M29.1665 54.4996C30.6623 54.4996 31.8748 53.287 31.8748 51.7913C31.8748 50.2956 30.6623 49.083 29.1665 49.083C27.6708 49.083 26.4583 50.2956 26.4583 51.7913C26.4583 53.287 27.6708 54.4996 29.1665 54.4996Z" fill="white"/>
</svg>
