<svg width="512" height="512" viewBox="0 0 512 512" fill="none" xmlns="http://www.w3.org/2000/svg">
<g clip-path="url(#clip0)">
<path d="M7.54901 111.97C7.54901 111.97 8.27001 371.666 7.54901 399.53C8.27001 426.19 30.093 447.585 56.927 447.585H304.708L469.148 283.145V111.97H7.54901Z" fill="#E0E0E2"/>
<path d="M248.63 503.664H504.484V247.81L248.63 503.664ZM450.158 450.39H368.032L450.158 368.264V450.39Z" fill="#FFCA10"/>
<path d="M479.435 272.859V503.664H504.484V247.81L479.435 272.859Z" fill="#FFA304"/>
<path d="M447.26 36.1995L423.906 12.8445C417.892 6.83048 408.142 6.83048 402.129 12.8445L381.923 33.0505L427.054 78.1815L447.259 57.9765C453.273 51.9625 453.273 42.2135 447.26 36.1995Z" fill="#546F7A"/>
<path d="M447.26 36.1992L432.214 21.1572C438.228 27.1712 438.228 36.9212 432.214 42.9342L412.01 63.1382L427.054 78.1822L447.259 57.9772C453.273 51.9622 453.273 42.2132 447.26 36.1992Z" fill="#475D63"/>
<path d="M427.047 78.1768L381.917 33.0469L357.501 57.463L402.631 102.593L427.047 78.1768Z" fill="#FF6137"/>
<path d="M427.056 78.1745L412.015 63.1338L387.599 87.55L402.639 102.591L427.056 78.1745Z" fill="#E04F32"/>
<path d="M166.667 293.437L236.35 268.839L191.265 223.755L166.667 293.437Z" fill="#FFC89F"/>
<path d="M221.357 253.847L174.847 270.264L166.667 293.437L236.35 268.839L221.357 253.847Z" fill="#F7B081"/>
<path d="M236.421 268.817L402.629 102.608L357.498 57.4777L191.29 223.686L236.421 268.817Z" fill="#FFD039"/>
<path d="M236.42 268.817L402.629 102.608L387.602 87.5818L221.394 253.79L236.42 268.817Z" fill="#FFA304"/>
<path d="M59.105 349.296V30.1113C30.612 30.1113 7.51398 53.2093 7.51398 81.7023V400.887C7.51498 372.394 30.613 349.296 59.105 349.296Z" fill="#919191"/>
<path d="M138.612 293.437H166.667L191.291 223.683L303.003 111.97H274.948L163.236 223.683L138.612 293.437Z" fill="#C6C5CA"/>
<path d="M444.1 111.97V308.194L469.149 283.145V111.97H444.1Z" fill="#C6C5CA"/>
<path d="M166.667 293.437L199.187 281.958L178.147 260.919L166.667 293.437Z" fill="#3C5156"/>
<path d="M453.034 361.322C450.226 360.158 446.994 360.801 444.844 362.95L362.718 445.076C360.569 447.226 359.927 450.458 361.09 453.266C362.252 456.074 364.994 457.905 368.033 457.905H450.159C454.31 457.905 457.674 454.541 457.674 450.39V368.264C457.673 365.225 455.842 362.485 453.034 361.322ZM442.644 442.876H386.174L442.643 386.407L442.644 442.876Z" fill="black"/>
<path d="M507.361 240.867C504.553 239.703 501.321 240.346 499.171 242.495L476.664 265.002V111.971C476.664 107.82 473.299 104.456 469.149 104.456H411.408L432.368 83.4963C432.371 83.4933 432.374 83.4893 432.377 83.4863L452.573 63.2903C456.9 58.9633 459.283 53.2073 459.283 47.0873C459.283 40.9673 456.9 35.2133 452.573 30.8843L429.219 7.53031C424.892 3.20331 419.136 0.820312 413.016 0.820312C406.896 0.820312 401.141 3.20331 396.813 7.53031L376.607 27.7363L352.191 52.1523L299.888 104.455H66.62V30.1103C66.62 25.9593 63.255 22.5953 59.105 22.5953C26.515 22.5973 0 49.1103 0 81.7023V400.888C0 401.443 0.064 401.983 0.178 402.503C1.216 416.332 7.199 429.181 17.198 438.935C27.886 449.359 41.995 455.1 56.927 455.1H286.565L243.316 498.349C241.167 500.499 240.524 503.731 241.687 506.539C242.85 509.348 245.591 511.178 248.63 511.178H504.485C508.635 511.178 512 507.814 512 503.663V247.81C512 244.771 510.168 242.03 507.361 240.867ZM381.922 43.6793L416.427 78.1833L402.638 91.9723L368.135 57.4683L381.922 43.6793ZM407.443 18.1593C410.515 15.0853 415.52 15.0853 418.592 18.1593L441.947 41.5143C445.021 44.5873 445.021 49.5903 441.947 52.6643L427.056 67.5563L392.55 33.0513L407.443 18.1593ZM266.772 496.149L310.008 452.913C310.013 452.908 310.018 452.904 310.023 452.9L329.242 433.68L342.679 420.243C345.614 417.307 345.614 412.55 342.679 409.615C342.342 409.278 341.98 408.986 341.601 408.726C338.675 406.722 334.649 407.017 332.05 409.615L301.594 440.071H56.928C34.137 440.071 15.788 422.277 15.066 399.526C15.109 398.098 15.22 396.682 15.398 395.282C15.399 395.274 15.4 395.266 15.401 395.258C15.485 394.593 15.586 393.931 15.701 393.273C15.714 393.198 15.728 393.123 15.741 393.048C15.846 392.461 15.964 391.877 16.093 391.295C16.129 391.133 16.167 390.971 16.205 390.81C16.319 390.318 16.442 389.829 16.574 389.342C16.646 389.079 16.721 388.817 16.798 388.554C16.908 388.172 17.022 387.792 17.143 387.414C17.264 387.037 17.392 386.664 17.524 386.291C17.615 386.031 17.705 385.769 17.803 385.511C17.986 385.019 18.18 384.532 18.38 384.049C18.437 383.91 18.493 383.769 18.552 383.63C18.809 383.03 19.076 382.437 19.358 381.851C19.37 381.826 19.381 381.801 19.393 381.776C25.27 369.612 36.576 360.543 50.143 357.729C50.181 357.721 50.219 357.712 50.257 357.704C50.879 357.577 51.507 357.468 52.139 357.367C52.244 357.35 52.349 357.329 52.456 357.313C53.027 357.226 53.604 357.158 54.181 357.093C54.343 357.075 54.504 357.05 54.667 357.034C55.224 356.978 55.786 356.941 56.348 356.906C56.526 356.895 56.704 356.876 56.882 356.867C57.618 356.83 58.36 356.811 59.105 356.811C63.255 356.811 66.62 353.447 66.62 349.296V294.807C66.62 290.656 63.255 287.292 59.105 287.292C54.955 287.292 51.59 290.656 51.59 294.807V342.254C38.9 343.859 27.121 349.519 17.833 358.589C16.856 359.543 15.93 360.535 15.029 361.543V81.7023C15.029 59.9613 30.855 41.8443 51.59 38.2663V111.971V264.748V264.749C51.59 268.899 54.955 272.264 59.105 272.264C63.255 272.264 66.62 268.899 66.62 264.749V264.748V119.486H284.86L243.316 161.03C240.381 163.966 240.381 168.723 243.316 171.658C246.251 174.592 251.009 174.592 253.943 171.658L308.316 117.285C308.318 117.283 308.319 117.281 308.321 117.28L357.506 68.0953L392.009 102.6L387.961 106.648C387.958 106.651 387.954 106.654 387.951 106.657L236.423 258.187L201.919 223.683L231.787 193.815C234.722 190.879 234.722 186.122 231.787 183.187C228.852 180.253 224.094 180.253 221.16 183.187L185.977 218.369C185.789 218.557 185.613 218.756 185.448 218.96C185.393 219.028 185.344 219.101 185.292 219.172C185.186 219.313 185.082 219.455 184.985 219.603C184.93 219.689 184.88 219.777 184.828 219.865C184.745 220.005 184.665 220.147 184.592 220.292C184.544 220.386 184.501 220.481 184.457 220.579C184.39 220.726 184.328 220.876 184.271 221.026C184.251 221.079 184.225 221.129 184.206 221.182L169.565 262.657L159.583 290.936C159.451 291.312 159.356 291.694 159.285 292.079H134.293C130.143 292.079 126.778 295.443 126.778 299.594C126.778 303.745 130.143 307.109 134.293 307.109H342.407C346.558 307.109 349.922 303.745 349.922 299.594C349.922 295.443 346.558 292.079 342.407 292.079H193.093L238.923 275.901C238.961 275.887 238.997 275.868 239.035 275.854C239.213 275.788 239.388 275.714 239.561 275.635C239.63 275.603 239.699 275.573 239.766 275.54C239.946 275.45 240.123 275.351 240.297 275.245C240.353 275.211 240.411 275.18 240.466 275.145C240.647 275.029 240.823 274.902 240.996 274.768C241.039 274.735 241.084 274.706 241.126 274.672C241.335 274.504 241.54 274.323 241.734 274.129L396.378 119.486H461.633V280.032L354.137 387.53C351.202 390.466 351.202 395.223 354.137 398.158C354.32 398.341 354.511 398.513 354.708 398.674C356.086 399.797 357.769 400.359 359.451 400.359C361.133 400.359 362.817 399.797 364.194 398.674C364.391 398.514 364.582 398.341 364.765 398.158L474.463 288.46C474.466 288.457 474.468 288.454 474.471 288.451L496.97 265.952V332.253H483.105C478.954 332.253 475.59 335.617 475.59 339.768C475.59 343.919 478.954 347.283 483.105 347.283H496.97V369.929H483.105C478.954 369.929 475.59 373.293 475.59 377.444C475.59 381.595 478.954 384.959 483.105 384.959H496.97V407.604H483.105C478.954 407.604 475.59 410.968 475.59 415.119C475.59 419.27 478.954 422.634 483.105 422.634H496.97V445.28H483.105C478.954 445.28 475.59 448.645 475.59 452.795C475.59 456.946 478.954 460.31 483.105 460.31H496.97V496.152L266.772 496.149ZM201.151 273.295L186.809 258.953L194.408 237.427L222.677 265.696L201.151 273.295Z" fill="black"/>
</g>
<defs>
<clipPath id="clip0">
<rect width="511.999" height="511.999" fill="white"/>
</clipPath>
</defs>
</svg>
