<svg width="119" height="102" viewBox="0 0 119 102" fill="none" xmlns="http://www.w3.org/2000/svg">
<path d="M57.6794 2.068L9.11808 25.7611C7.40025 26.5993 6.31055 28.3434 6.31055 30.2548V31.1626C6.31055 34.796 10.0632 37.2162 13.3731 35.7174L57.8091 15.5957C59.1181 15.0029 60.6189 15.002 61.9287 15.5932L106.54 35.7301C109.849 37.2238 113.597 34.8036 113.597 31.1728V30.2592C113.597 28.3455 112.505 26.5997 110.784 25.7628L62.0587 2.06526C60.6761 1.39285 59.0611 1.39387 57.6794 2.068Z" fill="#069203" stroke="white" stroke-width="1.5"/>
<mask id="path-2-inside-1" fill="white">
<path fill-rule="evenodd" clip-rule="evenodd" d="M16.2606 41.9625C21.298 39.0033 27.0396 37.4843 32.859 37.5513C33.9638 37.564 34.7912 38.53 34.7093 39.6318L34.0273 48.8087C33.9454 49.91 32.9847 50.7254 31.8809 50.7611C28.7517 50.8626 25.686 51.7444 22.9695 53.3402C19.6765 55.2747 17.0534 58.1662 15.4507 61.6283C13.8479 65.0904 13.3419 68.9583 14.0003 72.7151C14.6586 76.4719 16.4499 79.9387 19.1348 82.6523C21.8198 85.3658 25.2705 87.1969 29.0258 87.9009C32.7812 88.6048 36.6623 88.1481 40.1507 86.5917C43.639 85.0353 46.5684 82.4534 48.5475 79.191C50.2273 76.4218 51.1545 73.2743 51.2527 70.0579C51.2818 69.1061 51.9964 68.287 52.9469 68.2285L54.3041 68.145C54.4079 68.1386 54.4902 68.0553 54.4959 67.9515V67.9515C54.5021 67.8391 54.599 67.7535 54.7114 67.7604L57.6337 67.9402L63.9885 67.5492C64.231 67.5343 64.4401 67.719 64.4518 67.9618V67.9618C64.4626 68.1881 64.6409 68.3713 64.8671 68.3852L66.0103 68.4555C66.9488 68.5133 67.6545 69.322 67.6821 70.2618C67.7768 73.4858 68.7044 76.6413 70.388 79.4167C72.3671 82.6791 75.2965 85.261 78.7848 86.8174C82.2732 88.3738 86.1543 88.8305 89.9097 88.1265C93.665 87.4226 97.1157 85.5915 99.8007 82.8779C102.486 80.1644 104.277 76.6976 104.935 72.9407C105.594 69.1839 105.088 65.3161 103.485 61.8539C101.882 58.3918 99.259 55.5004 95.966 53.5659C93.2495 51.9701 90.1838 51.0883 87.0546 50.9868C85.9508 50.951 84.9901 50.1357 84.9082 49.0343L84.2262 39.8574C84.1443 38.7557 84.9717 37.7897 86.0765 37.777C91.8959 37.71 97.6375 39.229 102.675 42.1882C108.288 45.4857 112.76 50.4146 115.492 56.3163C118.224 62.218 119.087 68.8113 117.964 75.2154C116.842 81.6194 113.789 87.5291 109.212 92.1548C104.635 96.7804 98.7526 99.9018 92.3511 101.102C85.9495 102.302 79.3335 101.523 73.3871 98.8701C68.5852 96.7277 64.4046 93.4453 61.1967 89.3325C60.2984 88.1809 58.4811 88.1732 57.5732 89.3173C54.3876 93.3316 50.2681 96.5387 45.5484 98.6444C39.602 101.298 32.986 102.076 26.5844 100.876C20.1829 99.6761 14.3007 96.5548 9.72385 91.9291C5.14698 87.3034 2.09343 81.3937 0.971203 74.9897C-0.15102 68.5857 0.711537 61.9923 3.44362 56.0906C6.1757 50.189 10.6472 45.26 16.2606 41.9625Z"/>
</mask>
<path fill-rule="evenodd" clip-rule="evenodd" d="M16.2606 41.9625C21.298 39.0033 27.0396 37.4843 32.859 37.5513C33.9638 37.564 34.7912 38.53 34.7093 39.6318L34.0273 48.8087C33.9454 49.91 32.9847 50.7254 31.8809 50.7611C28.7517 50.8626 25.686 51.7444 22.9695 53.3402C19.6765 55.2747 17.0534 58.1662 15.4507 61.6283C13.8479 65.0904 13.3419 68.9583 14.0003 72.7151C14.6586 76.4719 16.4499 79.9387 19.1348 82.6523C21.8198 85.3658 25.2705 87.1969 29.0258 87.9009C32.7812 88.6048 36.6623 88.1481 40.1507 86.5917C43.639 85.0353 46.5684 82.4534 48.5475 79.191C50.2273 76.4218 51.1545 73.2743 51.2527 70.0579C51.2818 69.1061 51.9964 68.287 52.9469 68.2285L54.3041 68.145C54.4079 68.1386 54.4902 68.0553 54.4959 67.9515V67.9515C54.5021 67.8391 54.599 67.7535 54.7114 67.7604L57.6337 67.9402L63.9885 67.5492C64.231 67.5343 64.4401 67.719 64.4518 67.9618V67.9618C64.4626 68.1881 64.6409 68.3713 64.8671 68.3852L66.0103 68.4555C66.9488 68.5133 67.6545 69.322 67.6821 70.2618C67.7768 73.4858 68.7044 76.6413 70.388 79.4167C72.3671 82.6791 75.2965 85.261 78.7848 86.8174C82.2732 88.3738 86.1543 88.8305 89.9097 88.1265C93.665 87.4226 97.1157 85.5915 99.8007 82.8779C102.486 80.1644 104.277 76.6976 104.935 72.9407C105.594 69.1839 105.088 65.3161 103.485 61.8539C101.882 58.3918 99.259 55.5004 95.966 53.5659C93.2495 51.9701 90.1838 51.0883 87.0546 50.9868C85.9508 50.951 84.9901 50.1357 84.9082 49.0343L84.2262 39.8574C84.1443 38.7557 84.9717 37.7897 86.0765 37.777C91.8959 37.71 97.6375 39.229 102.675 42.1882C108.288 45.4857 112.76 50.4146 115.492 56.3163C118.224 62.218 119.087 68.8113 117.964 75.2154C116.842 81.6194 113.789 87.5291 109.212 92.1548C104.635 96.7804 98.7526 99.9018 92.3511 101.102C85.9495 102.302 79.3335 101.523 73.3871 98.8701C68.5852 96.7277 64.4046 93.4453 61.1967 89.3325C60.2984 88.1809 58.4811 88.1732 57.5732 89.3173C54.3876 93.3316 50.2681 96.5387 45.5484 98.6444C39.602 101.298 32.986 102.076 26.5844 100.876C20.1829 99.6761 14.3007 96.5548 9.72385 91.9291C5.14698 87.3034 2.09343 81.3937 0.971203 74.9897C-0.15102 68.5857 0.711537 61.9923 3.44362 56.0906C6.1757 50.189 10.6472 45.26 16.2606 41.9625Z" fill="#069203"/>
<path d="M16.2606 41.9625L15.5008 40.6691L15.5008 40.6691L16.2606 41.9625ZM22.9695 53.3402L23.7293 54.6336L23.7293 54.6336L22.9695 53.3402ZM15.4507 61.6283L14.0894 60.9981L14.0894 60.9981L15.4507 61.6283ZM14.0003 72.7151L12.5228 72.974L12.5228 72.974L14.0003 72.7151ZM19.1348 82.6523L18.0686 83.7073L18.0686 83.7073L19.1348 82.6523ZM29.0258 87.9009L29.3022 86.4266L29.3022 86.4266L29.0258 87.9009ZM40.1507 86.5917L40.7618 87.9616L40.7618 87.9616L40.1507 86.5917ZM48.5475 79.191L49.83 79.969L49.83 79.969L48.5475 79.191ZM57.6337 67.9402L57.5416 69.4373L57.6337 69.443L57.7258 69.4373L57.6337 67.9402ZM70.388 79.4167L69.1055 80.1947L69.1055 80.1947L70.388 79.4167ZM78.7848 86.8174L79.396 85.4475L79.396 85.4475L78.7848 86.8174ZM89.9097 88.1265L90.186 89.6009L90.1861 89.6009L89.9097 88.1265ZM99.8007 82.8779L98.7344 81.8229L98.7344 81.8229L99.8007 82.8779ZM104.935 72.9407L103.458 72.6818L103.458 72.6818L104.935 72.9407ZM95.966 53.5659L96.7258 52.2726L96.7258 52.2726L95.966 53.5659ZM102.675 42.1882L101.915 43.4815L101.915 43.4815L102.675 42.1882ZM115.492 56.3163L114.131 56.9465L114.131 56.9465L115.492 56.3163ZM117.964 75.2154L116.487 74.9565L116.487 74.9565L117.964 75.2154ZM109.212 92.1548L110.278 93.2098L110.278 93.2098L109.212 92.1548ZM92.3511 101.102L92.6274 102.576L92.6274 102.576L92.3511 101.102ZM73.3871 98.8701L73.9983 97.5003L73.9983 97.5003L73.3871 98.8701ZM45.5484 98.6444L46.1595 100.014L46.1595 100.014L45.5484 98.6444ZM26.5844 100.876L26.8608 99.4018L26.8608 99.4018L26.5844 100.876ZM0.971203 74.9897L2.44869 74.7308L0.971203 74.9897ZM3.44362 56.0906L2.0824 55.4605L2.0824 55.4605L3.44362 56.0906ZM66.0103 68.4555L65.9182 69.9527L66.0103 68.4555ZM67.6821 70.2618L69.1815 70.2178L67.6821 70.2618ZM64.8671 68.3852L64.775 69.8824L64.8671 68.3852ZM84.2262 39.8574L85.7221 39.7463L84.2262 39.8574ZM32.859 37.5513L32.8418 39.0512L32.859 37.5513ZM34.7093 39.6318L33.2134 39.5206L34.7093 39.6318ZM54.3041 68.145L54.212 66.6479L54.3041 68.145ZM54.7114 67.7604L54.8035 66.2632L54.7114 67.7604ZM87.0546 50.9868L87.0059 52.486L87.0546 50.9868ZM84.9082 49.0343L86.4041 48.9232L84.9082 49.0343ZM34.0273 48.8087L35.5231 48.9198L34.0273 48.8087ZM31.8809 50.7611L31.8323 49.2619L31.8809 50.7611ZM61.1967 89.3325L60.014 90.2551L61.1967 89.3325ZM51.2527 70.0579L52.752 70.1037L51.2527 70.0579ZM52.9469 68.2285L52.8547 66.7314L52.9469 68.2285ZM32.8763 36.0514C26.7846 35.9813 20.7742 37.5713 15.5008 40.6691L17.0204 43.2558C21.8217 40.4353 27.2946 38.9874 32.8418 39.0512L32.8763 36.0514ZM35.5231 48.9198L36.2052 39.7429L33.2134 39.5206L32.5314 48.6975L35.5231 48.9198ZM23.7293 54.6336C26.2288 53.1653 29.0498 52.3537 31.9296 52.2604L31.8323 49.2619C28.4535 49.3715 25.1432 50.3236 22.2097 52.0469L23.7293 54.6336ZM16.8119 62.2584C18.2862 59.0738 20.6993 56.4135 23.7293 54.6336L22.2097 52.0469C18.6537 54.1359 15.8206 57.2586 14.0894 60.9981L16.8119 62.2584ZM15.4777 72.4562C14.8722 69.0007 15.3376 65.4431 16.8119 62.2584L14.0894 60.9981C12.3583 64.7377 11.8116 68.9158 12.5228 72.974L15.4777 72.4562ZM20.2011 81.5972C17.731 79.1007 16.0833 75.9116 15.4777 72.4562L12.5228 72.974C13.2339 77.0321 15.1688 80.7766 18.0686 83.7073L20.2011 81.5972ZM29.3022 86.4266C25.8463 85.7788 22.6713 84.0938 20.2011 81.5972L18.0686 83.7073C20.9683 86.6379 24.6946 88.6151 28.7494 89.3752L29.3022 86.4266ZM39.5395 85.2219C36.3296 86.654 32.758 87.0744 29.3022 86.4266L28.7494 89.3752C32.8043 90.1353 36.995 89.6422 40.7618 87.9616L39.5395 85.2219ZM47.265 78.413C45.4445 81.4142 42.7494 83.7897 39.5395 85.2219L40.7618 87.9616C44.5287 86.2809 47.6924 83.4927 49.83 79.969L47.265 78.413ZM49.7534 70.0121C49.6631 72.9705 48.8103 75.8657 47.265 78.413L49.83 79.969C51.6444 76.978 52.6459 73.5781 52.752 70.1037L49.7534 70.0121ZM54.212 66.6479L52.8547 66.7314L53.039 69.7257L54.3962 69.6422L54.212 66.6479ZM54.6193 69.2576L57.5416 69.4373L57.7258 66.443L54.8035 66.2632L54.6193 69.2576ZM63.8964 66.0521L57.5416 66.443L57.7258 69.4373L64.0806 69.0464L63.8964 66.0521ZM64.775 69.8824L65.9182 69.9527L66.1024 66.9584L64.9592 66.888L64.775 69.8824ZM66.1828 70.3059C66.2851 73.7885 67.2871 77.1969 69.1055 80.1947L71.6705 78.6387C70.1217 76.0856 69.2686 73.1831 69.1815 70.2178L66.1828 70.3059ZM69.1055 80.1947C71.2431 83.7184 74.4068 86.5066 78.1737 88.1872L79.396 85.4475C76.1861 84.0154 73.491 81.6398 71.6705 78.6387L69.1055 80.1947ZM78.1737 88.1872C81.9404 89.8678 86.1312 90.361 90.186 89.6009L89.6333 86.6522C86.1775 87.3 82.6059 86.8797 79.396 85.4475L78.1737 88.1872ZM90.1861 89.6009C94.2409 88.8408 97.9672 86.8636 100.867 83.9329L98.7344 81.8229C96.2642 84.3194 93.0891 86.0044 89.6333 86.6522L90.1861 89.6009ZM100.867 83.933C103.767 81.0023 105.702 77.2578 106.413 73.1997L103.458 72.6818C102.852 76.1373 101.205 79.3264 98.7344 81.8229L100.867 83.933ZM106.413 73.1997C107.124 69.1415 106.577 64.9634 104.846 61.2238L102.124 62.4841C103.598 65.6687 104.063 69.2264 103.458 72.6818L106.413 73.1997ZM104.846 61.2238C103.115 57.4842 100.282 54.3615 96.7258 52.2726L95.2062 54.8593C98.2362 56.6392 100.649 59.2994 102.124 62.4841L104.846 61.2238ZM96.7258 52.2726C93.7923 50.5493 90.482 49.5972 87.1032 49.4876L87.0059 52.486C89.8857 52.5794 92.7067 53.3909 95.2062 54.8593L96.7258 52.2726ZM86.4041 48.9232L85.7221 39.7463L82.7303 39.9686L83.4124 49.1455L86.4041 48.9232ZM86.0937 39.2769C91.6409 39.213 97.1138 40.661 101.915 43.4815L103.435 40.8948C98.1613 37.797 92.1509 36.207 86.0592 36.2771L86.0937 39.2769ZM101.915 43.4815C107.266 46.6245 111.527 51.3222 114.131 56.9465L116.853 55.6862C113.993 49.507 109.311 44.3469 103.435 40.8948L101.915 43.4815ZM114.131 56.9465C116.734 62.5707 117.556 68.8538 116.487 74.9565L119.442 75.4743C120.617 68.7689 119.714 61.8653 116.853 55.6862L114.131 56.9465ZM116.487 74.9565C115.417 81.0591 112.507 86.6911 108.145 91.0997L110.278 93.2098C115.07 88.367 118.267 82.1797 119.442 75.4743L116.487 74.9565ZM108.145 91.0997C103.783 95.5084 98.1767 98.4836 92.0747 99.6275L92.6274 102.576C99.3285 101.32 105.486 98.0525 110.278 93.2098L108.145 91.0997ZM92.0747 99.6275C85.9727 100.771 79.6663 100.029 73.9983 97.5003L72.776 100.24C79.0008 103.017 85.9264 103.832 92.6274 102.576L92.0747 99.6275ZM73.9983 97.5003C69.4213 95.4582 65.4368 92.3296 62.3795 88.41L60.014 90.2551C63.3725 94.5609 67.7492 97.9972 72.776 100.24L73.9983 97.5003ZM46.1595 100.014C51.1003 97.8099 55.413 94.4525 58.7481 90.2498L56.3982 88.3849C53.3621 92.2107 49.4359 95.2675 44.9372 97.2746L46.1595 100.014ZM26.3081 102.35C33.0091 103.607 39.9347 102.792 46.1595 100.014L44.9372 97.2746C39.2692 99.8035 32.9628 100.546 26.8608 99.4018L26.3081 102.35ZM8.65757 92.9841C13.4492 97.8268 19.607 101.094 26.3081 102.35L26.8608 99.4018C20.7588 98.258 15.1522 95.2827 10.7901 90.8741L8.65757 92.9841ZM-0.506283 75.2486C0.668748 81.954 3.86593 88.1414 8.65757 92.9841L10.7901 90.8741C6.42803 86.4655 3.51811 80.8335 2.44869 74.7308L-0.506283 75.2486ZM2.0824 55.4605C-0.778137 61.6397 -1.68132 68.5432 -0.506283 75.2486L2.44869 74.7308C1.37928 68.6281 2.20121 62.345 4.80483 56.7208L2.0824 55.4605ZM15.5008 40.6691C9.62439 44.1212 4.94293 49.2814 2.0824 55.4605L4.80483 56.7208C7.40847 51.0966 11.67 46.3989 17.0204 43.2558L15.5008 40.6691ZM65.9182 69.9527C65.9683 69.9558 66.0231 69.9767 66.0779 70.037C66.1367 70.1016 66.1796 70.1973 66.1828 70.3059L69.1815 70.2178C69.1337 68.5893 67.8988 67.0689 66.1024 66.9584L65.9182 69.9527ZM62.9535 68.0335C63.0004 69.0132 63.7743 69.8208 64.775 69.8824L64.9592 66.888C65.5075 66.9218 65.9248 67.363 65.95 67.89L62.9535 68.0335ZM85.7221 39.7463C85.6997 39.4443 85.9165 39.2789 86.0937 39.2769L86.0592 36.2771C84.027 36.3005 82.589 38.0671 82.7303 39.9686L85.7221 39.7463ZM64.0806 69.0464C63.501 69.082 62.9825 68.6388 62.9535 68.0335L65.95 67.89C65.8978 66.7992 64.9611 65.9865 63.8964 66.0521L64.0806 69.0464ZM32.8418 39.0512C33.019 39.0533 33.2359 39.2186 33.2134 39.5206L36.2052 39.7429C36.3465 37.8415 34.9085 36.0748 32.8763 36.0514L32.8418 39.0512ZM54.3962 69.6422C55.2643 69.5888 55.9461 68.8929 55.9936 68.0344L52.9982 67.8687C53.0342 67.2177 53.5514 66.6885 54.212 66.6479L54.3962 69.6422ZM55.9936 68.0344C55.9536 68.7585 55.3315 69.3014 54.6193 69.2576L54.8035 66.2632C53.8665 66.2056 53.0507 66.9196 52.9982 67.8687L55.9936 68.0344ZM87.1032 49.4876C86.6648 49.4734 86.422 49.1633 86.4041 48.9232L83.4124 49.1455C83.5582 51.108 85.2368 52.4287 87.0059 52.486L87.1032 49.4876ZM32.5314 48.6975C32.5135 48.9377 32.2707 49.2477 31.8323 49.2619L31.9296 52.2604C33.6987 52.203 35.3773 50.8823 35.5231 48.9198L32.5314 48.6975ZM62.3795 88.41C60.8838 86.4925 57.9099 86.48 56.3982 88.3849L58.7481 90.2498C59.0523 89.8665 59.713 89.8692 60.014 90.2551L62.3795 88.41ZM52.752 70.1037C52.7555 69.9885 52.8011 69.8866 52.864 69.8175C52.9228 69.7527 52.9829 69.7291 53.039 69.7257L52.8547 66.7314C51.0461 66.8426 49.8035 68.3734 49.7534 70.0121L52.752 70.1037Z" fill="white" mask="url(#path-2-inside-1)"/>
<path d="M78.9002 55.3865C77.9752 59.061 75.9763 62.405 73.1256 64.9741C69.5262 68.2181 64.8334 69.9883 59.9836 69.9312C55.1338 69.8741 50.4842 67.9939 46.9624 64.666C43.4408 61.3383 41.3059 56.8077 40.9836 51.9786C40.6612 47.1495 42.175 42.3764 45.2231 38.6118C48.2713 34.8472 52.6298 32.3679 57.4291 31.6691C62.2284 30.9702 67.1151 32.1034 71.114 34.8421C74.1093 36.8935 76.4415 39.7327 77.8744 43.0121C78.3836 44.1773 77.478 45.5272 75.9756 45.5272H72.7009C71.6981 45.5272 70.7935 44.7814 70.1647 43.6604C69.4512 42.3885 68.4053 41.6212 66.9166 40.6017C64.4069 38.8828 61.3813 38.5721 58.5001 38.9916C55.5486 39.4214 52.8677 40.9462 50.9925 43.2622C49.1172 45.5782 48.1856 48.5151 48.384 51.4868C48.5824 54.4585 49.8961 57.246 52.0625 59.2931C54.2289 61.3402 57.0887 62.4965 60.0711 62.5316C63.0536 62.5667 65.9399 61.4781 68.154 59.4826C69.5503 58.2243 70.6323 56.7852 71.3012 55.1168C71.8322 53.7923 72.9407 52.8766 74.1128 52.9373L76.997 53.0865C78.3113 53.1545 79.1802 54.274 78.9002 55.3865Z" fill="#069203" stroke="white" stroke-width="1.5"/>
<ellipse cx="60.0825" cy="50.2268" rx="7.09028" ry="7.07699" fill="#069203"/>
</svg>
