<svg width="512" height="512" viewBox="0 0 512 512" fill="none" xmlns="http://www.w3.org/2000/svg">
<path d="M297.981 127H284.52C282.201 126.952 279.981 126.05 278.285 124.466C276.589 122.883 275.537 120.73 275.33 118.42L275.05 118.44L266.49 127H245.51L237.02 117.46L236.9 117.58C236.899 120.078 235.907 122.473 234.14 124.24C232.374 126.006 229.979 126.999 227.481 127H214.02C209.196 126.999 204.42 127.949 199.963 129.795C195.507 131.64 191.457 134.346 188.047 137.756C184.636 141.167 181.93 145.217 180.085 149.673C178.239 154.13 177.289 158.906 177.29 163.73V221.45H334.71V163.73C334.711 158.906 333.761 154.13 331.916 149.673C330.07 145.217 327.365 141.167 323.954 137.757C320.543 134.346 316.494 131.64 312.038 129.795C307.581 127.949 302.805 126.999 297.981 127V127Z" fill="#5FA8ED"/>
<path d="M223.1 127H214.02C209.196 126.999 204.42 127.949 199.963 129.795C195.507 131.64 191.457 134.346 188.047 137.757C184.636 141.167 181.93 145.217 180.085 149.673C178.239 154.13 177.289 158.906 177.29 163.73V221.45H207.29V163.73C207.285 157.715 208.76 151.791 211.583 146.479C214.407 141.168 218.493 136.632 223.482 133.272L223.1 127Z" fill="#4689D3"/>
<path d="M287.48 47.48V68.47C287.48 72.604 286.666 76.6975 285.084 80.5169C283.502 84.3362 281.183 87.8065 278.26 90.7297C275.337 93.6529 271.866 95.9717 268.047 97.5537C264.228 99.1357 260.134 99.95 256 99.95C251.866 99.95 247.772 99.1357 243.953 97.5537C240.134 95.9717 236.663 93.6529 233.74 90.7297C230.817 87.8065 228.498 84.3362 226.916 80.5169C225.334 76.6975 224.52 72.604 224.52 68.47V47.48C224.52 43.346 225.334 39.2525 226.916 35.4331C228.498 31.6138 230.817 28.1435 233.74 25.2203C236.663 22.2971 240.134 19.9783 243.953 18.3963C247.772 16.8143 251.866 16 256 16C260.134 16 264.228 16.8143 268.047 18.3963C271.866 19.9783 275.337 22.2971 278.26 25.2203C281.183 28.1435 283.502 31.6138 285.084 35.4331C286.666 39.2525 287.48 43.346 287.48 47.48V47.48Z" fill="#F9B691"/>
<path d="M244.52 68.4701V47.4801C244.521 40.8815 246.595 34.45 250.45 29.094C254.304 23.738 259.743 19.7283 266 17.6311C261.267 16.0456 256.224 15.6084 251.288 16.3558C246.352 17.1031 241.665 19.0135 237.613 21.9292C233.561 24.845 230.261 28.6825 227.984 33.1252C225.708 37.5678 224.52 42.4882 224.52 47.4801V68.4701C224.518 73.4632 225.703 78.3853 227.979 82.8297C230.255 87.274 233.555 91.1133 237.608 94.0303C241.66 96.9473 246.348 98.8584 251.285 99.6057C256.222 100.353 261.266 99.9151 266 98.3281C259.743 96.2297 254.302 92.2184 250.448 86.8608C246.594 81.5032 244.52 75.0701 244.52 68.4701V68.4701Z" fill="#E8AA8B"/>
<path d="M131.8 319.23V340.22C131.8 344.355 130.986 348.449 129.403 352.269C127.821 356.089 125.502 359.56 122.578 362.483C119.655 365.407 116.184 367.726 112.364 369.308C108.544 370.891 104.45 371.705 100.315 371.705C96.1803 371.705 92.0861 370.891 88.2662 369.308C84.4462 367.726 80.9753 365.407 78.0517 362.483C75.128 359.56 72.8089 356.089 71.2266 352.269C69.6443 348.449 68.83 344.355 68.83 340.22V319.23C68.83 310.88 72.1471 302.871 78.0517 296.967C83.9563 291.062 91.9646 287.745 100.315 287.745C108.665 287.745 116.674 291.062 122.578 296.967C128.483 302.871 131.8 310.88 131.8 319.23V319.23Z" fill="#F9B691"/>
<path d="M93.83 340.22V319.23C93.8313 313.087 95.6295 307.078 99.0032 301.944C102.377 296.81 107.179 292.775 112.817 290.336C108.027 288.265 102.797 287.417 97.5978 287.868C92.3986 288.319 87.3931 290.055 83.0312 292.92C78.6694 295.786 75.088 299.69 72.6092 304.282C70.1303 308.875 68.8316 314.011 68.83 319.23V340.22C68.8312 345.439 70.1296 350.576 72.6084 355.169C75.0872 359.762 78.6686 363.667 83.0306 366.533C87.3927 369.399 92.3986 371.135 97.5982 371.587C102.798 372.039 108.028 371.191 112.819 369.12C107.18 366.68 102.378 362.643 99.0042 357.509C95.6303 352.374 93.8317 346.364 93.83 340.22V340.22Z" fill="#E8AA8B"/>
<path d="M179.03 435.48V493.2H21.61V435.48C21.6092 430.656 22.5587 425.88 24.4043 421.423C26.2499 416.966 28.9553 412.917 32.3662 409.506C35.777 406.095 39.8264 403.39 44.2831 401.544C48.7397 399.699 53.5163 398.749 58.34 398.75H71.8C74.2981 398.749 76.6936 397.756 78.4601 395.99C80.2265 394.224 81.2192 391.828 81.22 389.33L81.34 389.21L86.38 403.85C87.3789 406.751 89.2538 409.27 91.7456 411.059C94.2375 412.848 97.2235 413.82 100.291 413.84C103.359 413.86 106.357 412.927 108.872 411.169C111.387 409.412 113.294 406.917 114.33 404.03L119.61 389.33C119.611 391.795 120.578 394.162 122.304 395.923C124.029 397.684 126.375 398.698 128.84 398.75H142.3C152.041 398.75 161.384 402.62 168.272 409.508C175.16 416.396 179.03 425.739 179.03 435.48V435.48Z" fill="#B0B5CA"/>
<path d="M71.8 398.75H58.34C53.5163 398.749 48.7397 399.699 44.2831 401.544C39.8264 403.39 35.777 406.095 32.3662 409.506C28.9553 412.917 26.2499 416.966 24.4043 421.423C22.5587 425.88 21.6092 430.656 21.61 435.48V493.2H46.61V435.48C46.609 427.726 49.0616 420.17 53.6165 413.894C58.1714 407.619 64.5951 402.945 71.968 400.543L71.8 398.75Z" fill="#CCD3DF"/>
<path d="M256.12 282.73C265.851 282.73 275.364 285.616 283.455 291.023C291.546 296.429 297.852 304.114 301.576 313.105C305.299 322.095 306.273 331.988 304.374 341.533C302.475 351.077 297.788 359.843 290.906 366.724C284.024 373.604 275.257 378.289 265.712 380.186C256.168 382.084 246.275 381.108 237.285 377.382C228.295 373.657 220.612 367.349 215.207 359.257C209.802 351.165 206.918 341.652 206.92 331.92C206.92 325.46 208.193 319.063 210.666 313.094C213.139 307.126 216.763 301.703 221.332 297.135C225.9 292.567 231.324 288.944 237.293 286.472C243.262 284.001 249.66 282.729 256.12 282.73V282.73Z" fill="#50DD5A"/>
<path d="M260.92 142.74L269.32 191.03L255.84 206.77L242.68 191.03L252.13 142.72C252.216 142.732 252.303 142.738 252.39 142.74H260.92Z" fill="#FB6771"/>
<path d="M266.49 127L261.64 141.15C261.527 141.603 261.265 142.005 260.898 142.293C260.53 142.581 260.077 142.738 259.61 142.74H252.39C251.925 142.733 251.474 142.573 251.108 142.286C250.741 141.999 250.479 141.6 250.36 141.15L245.51 127H266.49Z" fill="#FB6771"/>
<path d="M265.84 456.64V486.16C265.84 488.769 264.803 491.272 262.958 493.118C261.113 494.963 258.61 496 256 496C253.39 496 250.887 494.963 249.042 493.118C247.197 491.272 246.16 488.769 246.16 486.16V456.64H265.84Z" fill="#4A5160"/>
<path d="M256.12 436.97H265.84V456.64H246.16V436.97H256.12Z" fill="#4A5160"/>
<path d="M490.39 435.48V493.2H332.97V435.48C332.97 425.739 336.84 416.396 343.728 409.508C350.616 402.62 359.959 398.75 369.7 398.75H383.16C385.658 398.749 388.054 397.756 389.82 395.99C391.586 394.224 392.579 391.828 392.58 389.33L392.7 389.21L397.74 403.85C398.74 406.751 400.616 409.27 403.109 411.059C405.601 412.849 408.588 413.82 411.656 413.84C414.725 413.86 417.724 412.927 420.239 411.17C422.755 409.412 424.663 406.918 425.7 404.03L430.97 389.33C430.971 391.795 431.938 394.162 433.664 395.923C435.389 397.684 437.735 398.698 440.2 398.75H453.66C458.484 398.749 463.26 399.699 467.717 401.544C472.174 403.39 476.223 406.095 479.634 409.506C483.045 412.917 485.75 416.966 487.596 421.423C489.441 425.88 490.391 430.656 490.39 435.48V435.48Z" fill="#EDB740"/>
<path d="M378.482 398.75H369.7C359.959 398.75 350.616 402.62 343.728 409.508C336.84 416.396 332.97 425.739 332.97 435.48V493.2H352.97V435.48C352.97 427.654 355.469 420.032 360.103 413.725C364.737 407.418 371.263 402.756 378.731 400.416L378.482 398.75Z" fill="#D8A43D"/>
<path d="M457.33 345.44C465.15 345.44 471.49 339.1 471.49 331.28C471.49 323.46 465.15 317.12 457.33 317.12C449.51 317.12 443.17 323.46 443.17 331.28C443.17 339.1 449.51 345.44 457.33 345.44Z" fill="#6D7486"/>
<path d="M443.17 331.28V340.22C443.17 346.821 441.096 353.256 437.239 358.615C433.383 363.973 427.94 367.984 421.68 370.08C415.423 367.98 409.983 363.968 406.129 358.611C402.275 353.253 400.201 346.82 400.2 340.22V319.61C404.896 317.952 409.212 315.368 412.89 312.01C421.23 326.37 435 325.4 443.17 323.21V331.28Z" fill="#F5CAC1"/>
<path d="M433.95 296.97C436.876 299.891 439.196 303.361 440.778 307.181C442.361 311.001 443.173 315.095 443.17 319.23V323.21C435 325.4 421.23 326.37 412.89 312.01C415.905 309.113 418.295 305.629 419.911 301.773C421.528 297.917 422.338 293.771 422.29 289.59C426.674 291.159 430.656 293.679 433.95 296.97V296.97Z" fill="#4A5160"/>
<path d="M421.68 289.38C421.29 289.25 420.89 289.12 420.49 289.01C420.89 289.12 421.29 289.24 421.68 289.38Z" fill="#F5CAC1"/>
<path d="M421.68 370.08C421.29 370.21 420.89 370.34 420.49 370.45C420.09 370.56 419.69 370.68 419.28 370.78C418.87 370.88 418.47 370.97 418.06 371.06C418.056 371.064 418.051 371.067 418.046 371.069C418.041 371.07 418.035 371.071 418.03 371.07C417.63 371.15 417.22 371.22 416.82 371.29C415.98 371.43 415.13 371.53 414.28 371.6C413.85 371.64 413.42 371.67 412.99 371.68C412.56 371.69 412.12 371.71 411.68 371.71C407.545 371.71 403.451 370.895 399.631 369.312C395.811 367.73 392.341 365.41 389.418 362.486C386.494 359.562 384.176 356.09 382.594 352.27C381.013 348.45 380.199 344.355 380.2 340.22V323.48C387.022 323.189 393.762 321.884 400.2 319.61V340.22C400.201 346.82 402.275 353.253 406.129 358.611C409.983 363.969 415.423 367.981 421.68 370.08V370.08Z" fill="#FDDDD8"/>
<path d="M420.49 370.45C420.89 370.34 421.29 370.21 421.68 370.08C421.29 370.22 420.89 370.34 420.49 370.45Z" fill="#F5CAC1"/>
<path d="M420.49 289.01C420.09 288.89 419.69 288.78 419.28 288.68C419.69 288.78 420.09 288.88 420.49 289.01Z" fill="#F5CAC1"/>
<path d="M419.28 370.78C419.69 370.68 420.09 370.57 420.49 370.45C420.09 370.58 419.69 370.68 419.28 370.78Z" fill="#F5CAC1"/>
<path d="M419.28 288.679C418.88 288.579 418.47 288.489 418.06 288.399C418.47 288.479 418.88 288.569 419.28 288.679Z" fill="#F5CAC1"/>
<path d="M418.06 371.059C418.47 370.969 418.88 370.879 419.28 370.779C418.88 370.889 418.47 370.979 418.06 371.059Z" fill="#F5CAC1"/>
<path d="M418.03 288.39C417.63 288.31 417.22 288.24 416.82 288.17C417.22 288.23 417.63 288.31 418.03 288.39Z" fill="#F5CAC1"/>
<path d="M416.82 371.289C417.22 371.219 417.63 371.149 418.03 371.069C417.63 371.149 417.22 371.229 416.82 371.289Z" fill="#F5CAC1"/>
<path d="M416.82 288.169C415.98 288.029 415.13 287.929 414.28 287.859C415.14 287.929 415.98 288.029 416.82 288.169Z" fill="#F5CAC1"/>
<path d="M414.28 371.6C415.13 371.53 415.98 371.43 416.82 371.29C415.98 371.43 415.14 371.53 414.28 371.6Z" fill="#F5CAC1"/>
<path d="M414.28 287.859C413.85 287.819 413.42 287.789 412.99 287.779C413.43 287.789 413.86 287.819 414.28 287.859Z" fill="#F5CAC1"/>
<path d="M412.99 371.68C413.42 371.67 413.85 371.64 414.28 371.6C413.86 371.64 413.43 371.67 412.99 371.68Z" fill="#F5CAC1"/>
<path d="M411.68 371.71C412.12 371.71 412.55 371.7 412.99 371.68C412.56 371.7 412.12 371.71 411.68 371.71Z" fill="#F5CAC1"/>
<path d="M412.12 287.76C412.41 287.76 412.7 287.77 412.99 287.78C412.7 287.77 412.41 287.76 412.12 287.76Z" fill="#F5CAC1"/>
<path d="M418.03 288.39C417.63 288.31 411.83 287.75 411.68 287.75C403.331 287.75 395.324 291.067 389.421 296.971C383.517 302.874 380.2 310.881 380.2 319.23V323.48C387.022 323.188 393.762 321.884 400.2 319.61C404.896 317.953 409.212 315.368 412.89 312.01C415.905 309.113 418.295 305.629 419.911 301.773C421.528 297.917 422.338 293.771 422.29 289.59C422.09 289.51 418.04 288.39 418.03 288.39V288.39Z" fill="#4A5160"/>
<path d="M177.289 227.448H334.711C336.302 227.448 337.828 226.816 338.954 225.691C340.079 224.566 340.711 223.04 340.711 221.448V163.727C340.697 152.399 336.19 141.539 328.179 133.529C320.168 125.519 309.308 121.013 297.979 121H284.711C283.805 120.999 282.936 120.639 282.295 119.998C281.654 119.357 281.293 118.488 281.292 117.581C281.293 116.197 280.814 114.855 279.938 113.782C279.061 112.71 277.841 111.974 276.484 111.699C275.127 111.424 273.717 111.627 272.492 112.273C271.267 112.919 270.304 113.969 269.765 115.244L264.009 121H248.2L241.5 113.474C240.976 112.886 240.342 112.406 239.632 112.063C238.923 111.719 238.153 111.519 237.366 111.473C236.579 111.427 235.791 111.537 235.047 111.796C234.303 112.055 233.617 112.457 233.028 112.981C232.938 113.061 232.855 113.149 232.771 113.234C232.179 113.793 231.708 114.467 231.386 115.215C231.064 115.962 230.898 116.768 230.898 117.581C230.897 118.488 230.537 119.357 229.896 119.998C229.255 120.639 228.386 120.999 227.48 121H214.021C202.692 121.013 191.83 125.519 183.819 133.53C175.808 141.541 171.302 152.402 171.289 163.731V221.452C171.29 223.043 171.923 224.568 173.048 225.692C174.173 226.817 175.698 227.448 177.289 227.448ZM258.1 133L256.817 136.742H255.191L253.9 133H258.1ZM256.439 151.966L262.926 189.273L255.898 197.481L249.124 189.375L256.439 151.966ZM183.293 163.731C183.302 155.584 186.543 147.774 192.303 142.013C198.064 136.252 205.874 133.01 214.021 133H227.48C229.556 133 231.611 132.579 233.519 131.763C235.428 130.946 237.152 129.751 238.586 128.25L240.221 130.087L245.573 144.98L236.794 189.88C236.622 190.757 236.649 191.661 236.871 192.526C237.093 193.391 237.505 194.195 238.078 194.88L251.233 210.622C251.793 211.291 252.491 211.83 253.28 212.202C254.069 212.574 254.93 212.769 255.802 212.774H255.838C256.704 212.774 257.56 212.586 258.347 212.224C259.134 211.861 259.833 211.333 260.396 210.674L273.875 194.932C274.45 194.261 274.869 193.471 275.103 192.619C275.337 191.767 275.38 190.873 275.229 190.002L267.147 143.529L271.72 130.262L273.659 128.322C276.434 131.188 280.214 132.863 284.201 132.992C284.307 132.998 284.412 133.001 284.52 133.001H297.979C306.127 133.01 313.938 136.251 319.7 142.012C325.461 147.773 328.702 155.585 328.711 163.732V215.453H183.289L183.293 163.731Z" fill="#284268"/>
<path d="M256 105.958C265.938 105.947 275.466 101.994 282.493 94.9669C289.52 87.9397 293.473 78.412 293.484 68.474V47.484C293.484 37.5426 289.535 28.0084 282.505 20.9788C275.476 13.9492 265.941 10 256 10C246.059 10 236.524 13.9492 229.495 20.9788C222.465 28.0084 218.516 37.5426 218.516 47.484V68.474C218.527 78.412 222.48 87.9397 229.507 94.9669C236.534 101.994 246.062 105.947 256 105.958V105.958ZM230.516 47.484C230.516 40.7252 233.201 34.2433 237.98 29.4641C242.759 24.6849 249.241 22 256 22C262.759 22 269.241 24.6849 274.02 29.4641C278.799 34.2433 281.484 40.7252 281.484 47.484V68.474C281.484 75.2328 278.799 81.7147 274.02 86.4939C269.241 91.2731 262.759 93.958 256 93.958C249.241 93.958 242.759 91.2731 237.98 86.4939C233.201 81.7147 230.516 75.2328 230.516 68.474V47.484Z" fill="#284268"/>
<path d="M307.691 160.558H287.484C285.893 160.558 284.367 161.19 283.241 162.315C282.116 163.44 281.484 164.966 281.484 166.558C281.484 168.149 282.116 169.675 283.241 170.8C284.367 171.925 285.893 172.558 287.484 172.558H307.691C309.282 172.558 310.808 171.925 311.934 170.8C313.059 169.675 313.691 168.149 313.691 166.558C313.691 164.966 313.059 163.44 311.934 162.315C310.808 161.19 309.282 160.558 307.691 160.558V160.558Z" fill="#284268"/>
<path d="M100.319 377.708C110.256 377.696 119.783 373.742 126.81 366.715C133.836 359.688 137.789 350.161 137.8 340.224V319.233C137.749 309.325 133.777 299.84 126.753 292.852C119.729 285.864 110.224 281.941 100.316 281.941C90.4075 281.941 80.9024 285.864 73.8782 292.852C66.854 299.84 62.8822 309.325 62.8311 319.233V340.224C62.8422 350.162 66.7955 359.691 73.8236 366.718C80.8516 373.745 90.3804 377.698 100.319 377.708V377.708ZM74.8351 319.233C74.8772 312.502 77.5808 306.06 82.3555 301.315C87.1302 296.571 93.5882 293.907 100.32 293.907C107.051 293.907 113.509 296.571 118.284 301.315C123.058 306.06 125.762 312.502 125.804 319.233V340.224C125.762 346.955 123.058 353.396 118.284 358.141C113.509 362.886 107.051 365.549 100.32 365.549C93.5882 365.549 87.1302 362.886 82.3555 358.141C77.5808 353.396 74.8772 346.955 74.8351 340.224V319.233Z" fill="#284268"/>
<path d="M142.3 392.745H129.03C128.124 392.744 127.255 392.384 126.614 391.743C125.973 391.102 125.612 390.234 125.611 389.327C125.611 387.915 125.112 386.547 124.202 385.466C123.293 384.385 122.031 383.66 120.639 383.418C119.247 383.176 117.815 383.432 116.594 384.143C115.373 384.853 114.441 385.972 113.964 387.301L108.688 402C108.072 403.719 106.937 405.203 105.441 406.249C103.944 407.295 102.16 407.851 100.334 407.839C98.5089 407.827 96.732 407.249 95.2491 406.184C93.7662 405.119 92.6505 403.62 92.056 401.894L87.01 387.253C86.6784 386.291 86.1075 385.43 85.3512 384.749C84.5948 384.068 83.6777 383.591 82.6862 383.363C81.6947 383.134 80.6614 383.161 79.6833 383.442C78.7052 383.722 77.8145 384.247 77.095 384.966L76.976 385.085C76.4186 385.642 75.9764 386.303 75.6747 387.031C75.3731 387.759 75.2179 388.539 75.218 389.327C75.2172 390.234 74.8569 391.103 74.216 391.743C73.5752 392.384 72.7063 392.745 71.8 392.745H58.34C47.0107 392.758 36.149 397.264 28.138 405.275C20.1269 413.286 15.6207 424.148 15.608 435.477V493.2C15.608 494.792 16.2402 496.318 17.3654 497.443C18.4906 498.568 20.0167 499.2 21.608 499.2H179.029C180.62 499.2 182.146 498.568 183.272 497.443C184.397 496.318 185.029 494.792 185.029 493.2V435.477C185.016 424.149 180.511 413.287 172.5 405.276C164.49 397.265 153.629 392.759 142.3 392.745V392.745ZM173.029 487.2H27.608V435.477C27.6173 427.33 30.8581 419.518 36.6195 413.757C42.3808 407.995 50.1922 404.755 58.34 404.745H71.8C74.5475 404.749 77.2454 404.014 79.611 402.616L80.711 405.805C82.1149 409.881 84.7494 413.42 88.2508 415.934C91.7522 418.448 95.9477 419.813 100.258 419.841C104.569 419.868 108.781 418.557 112.314 416.088C115.848 413.619 118.527 410.114 119.983 406.056L121.218 402.615C123.434 403.925 125.945 404.655 128.518 404.736C128.623 404.742 128.728 404.745 128.836 404.745H142.3C150.448 404.755 158.259 407.995 164.02 413.757C169.781 419.518 173.022 427.33 173.031 435.477L173.029 487.2Z" fill="#284268"/>
<path d="M453.66 392.745H440.392C439.486 392.744 438.617 392.384 437.976 391.743C437.335 391.102 436.975 390.233 436.974 389.327C436.975 387.914 436.476 386.546 435.567 385.464C434.657 384.382 433.395 383.656 432.003 383.414C430.61 383.171 429.177 383.428 427.956 384.139C426.734 384.85 425.803 385.97 425.326 387.3L420.049 402C419.432 403.718 418.297 405.202 416.801 406.247C415.304 407.293 413.52 407.848 411.695 407.836C409.87 407.824 408.093 407.246 406.61 406.182C405.128 405.117 404.012 403.619 403.417 401.893L398.371 387.25C398.039 386.286 397.466 385.422 396.708 384.741C395.949 384.059 395.03 383.582 394.035 383.355C393.041 383.128 392.006 383.158 391.026 383.442C390.047 383.726 389.156 384.255 388.438 384.979L388.32 385.099C387.205 386.223 386.58 387.741 386.58 389.324C386.579 390.23 386.218 391.099 385.577 391.74C384.936 392.381 384.067 392.741 383.161 392.742H369.7C358.371 392.755 347.509 397.261 339.499 405.272C331.488 413.283 326.982 424.145 326.969 435.474V493.2C326.969 494.791 327.601 496.317 328.726 497.443C329.852 498.568 331.378 499.2 332.969 499.2H490.392C491.983 499.2 493.509 498.568 494.635 497.443C495.76 496.317 496.392 494.791 496.392 493.2V435.477C496.379 424.148 491.873 413.286 483.862 405.275C475.851 397.264 464.989 392.758 453.66 392.745ZM484.392 487.2H338.971V435.477C338.98 427.33 342.22 419.519 347.981 413.757C353.742 407.996 361.553 404.755 369.7 404.745H383.159C385.907 404.749 388.605 404.013 390.971 402.616L392.071 405.805C393.475 409.88 396.11 413.419 399.611 415.934C403.112 418.448 407.308 419.813 411.618 419.84C415.929 419.868 420.141 418.557 423.675 416.088C427.208 413.619 429.888 410.114 431.344 406.057L432.579 402.615C434.795 403.925 437.306 404.654 439.879 404.736C439.984 404.742 440.09 404.745 440.197 404.745H453.657C461.805 404.754 469.616 407.995 475.378 413.756C481.139 419.518 484.38 427.329 484.389 435.477L484.392 487.2Z" fill="#284268"/>
<path d="M332.251 381.327L322.711 369.808C325.889 364.297 328.375 358.415 330.111 352.296L344.873 350.856C346.356 350.711 347.733 350.02 348.734 348.916C349.736 347.812 350.291 346.375 350.291 344.885V318.964C350.291 317.472 349.736 316.034 348.733 314.929C347.73 313.825 346.352 313.134 344.867 312.991L329.882 311.547C328.169 305.414 325.69 299.521 322.504 294.008L332.018 282.521C332.967 281.375 333.456 279.918 333.391 278.431C333.326 276.945 332.711 275.536 331.666 274.478L313.613 256.194C312.558 255.125 311.141 254.49 309.642 254.415C308.142 254.34 306.669 254.83 305.513 255.789L294 265.328C288.491 262.15 282.612 259.665 276.494 257.928L275.05 242.938C274.907 241.453 274.216 240.075 273.111 239.072C272.007 238.069 270.569 237.513 269.077 237.514H243.155C241.663 237.514 240.225 238.069 239.121 239.072C238.017 240.075 237.326 241.453 237.183 242.938L235.738 257.924C229.606 259.637 223.713 262.115 218.2 265.3L206.713 255.787C205.562 254.834 204.098 254.344 202.605 254.414C201.113 254.484 199.701 255.108 198.644 256.165L180.359 274.45C179.302 275.506 178.677 276.919 178.607 278.412C178.537 279.905 179.027 281.37 179.98 282.521L189.521 294.04C186.343 299.548 183.857 305.428 182.121 311.547L167.132 312.991C165.647 313.134 164.269 313.825 163.266 314.929C162.263 316.034 161.708 317.472 161.708 318.964V344.885C161.708 346.376 162.264 347.815 163.267 348.919C164.27 350.023 165.648 350.714 167.133 350.857L182.117 352.301C183.83 358.434 186.309 364.326 189.495 369.84L179.981 381.327C179.028 382.477 178.539 383.942 178.609 385.435C178.679 386.928 179.303 388.34 180.36 389.397L198.645 407.681C199.702 408.737 201.114 409.361 202.606 409.431C204.099 409.501 205.563 409.012 206.714 408.059L218.233 398.52C225.021 402.447 232.374 405.303 240.033 406.987C240.808 407.165 241.61 407.188 242.394 407.054C243.177 406.92 243.926 406.632 244.597 406.206C245.269 405.78 245.848 405.225 246.303 404.573C246.758 403.921 247.079 403.185 247.247 402.408C247.414 401.631 247.426 400.828 247.281 400.047C247.137 399.265 246.838 398.52 246.403 397.855C245.967 397.19 245.404 396.618 244.746 396.172C244.088 395.726 243.347 395.416 242.568 395.259C234.869 393.543 227.544 390.451 220.946 386.13C219.874 385.439 218.611 385.107 217.338 385.182C216.065 385.258 214.849 385.737 213.867 386.551L203.267 395.332L192.708 384.774L201.49 374.169C202.313 373.175 202.794 371.942 202.861 370.653C202.928 369.364 202.577 368.088 201.861 367.014C197.523 360.457 194.444 353.151 192.781 345.468C192.512 344.224 191.855 343.098 190.904 342.252C189.954 341.406 188.759 340.885 187.492 340.763L173.708 339.435V324.413L187.492 323.085C188.758 322.963 189.952 322.442 190.903 321.597C191.854 320.752 192.511 319.628 192.781 318.385C194.496 310.686 197.589 303.361 201.911 296.764C202.602 295.692 202.934 294.428 202.859 293.155C202.783 291.882 202.304 290.666 201.49 289.684L192.708 279.078L203.267 268.521L213.867 277.302C214.861 278.125 216.094 278.606 217.383 278.672C218.672 278.739 219.948 278.389 221.022 277.673C227.578 273.336 234.885 270.257 242.568 268.594C243.812 268.325 244.938 267.668 245.784 266.717C246.629 265.766 247.151 264.571 247.273 263.305L248.601 249.52H263.624L264.952 263.305C265.074 264.571 265.596 265.766 266.441 266.717C267.287 267.668 268.413 268.325 269.657 268.594C277.356 270.308 284.681 273.401 291.279 277.723C292.351 278.414 293.614 278.746 294.887 278.67C296.16 278.594 297.376 278.115 298.358 277.302L308.935 268.542L319.312 279.052L310.512 289.684C309.689 290.678 309.208 291.911 309.141 293.2C309.075 294.489 309.425 295.765 310.141 296.839C314.479 303.395 317.558 310.701 319.221 318.385C319.491 319.628 320.148 320.752 321.099 321.597C322.05 322.442 323.244 322.963 324.51 323.085L338.294 324.413V339.441L324.734 340.764C323.469 340.887 322.276 341.408 321.327 342.253C320.378 343.098 319.721 344.222 319.452 345.464C317.738 353.163 314.645 360.488 310.322 367.085C309.631 368.156 309.299 369.42 309.374 370.694C309.45 371.967 309.93 373.182 310.743 374.165L319.525 384.77L308.967 395.329L298.362 386.547C297.368 385.723 296.135 385.243 294.846 385.176C293.557 385.109 292.281 385.46 291.207 386.176C284.651 390.513 277.344 393.591 269.661 395.255C268.882 395.412 268.141 395.722 267.483 396.168C266.825 396.614 266.262 397.186 265.827 397.851C265.391 398.516 265.092 399.261 264.948 400.043C264.803 400.824 264.815 401.627 264.982 402.404C265.15 403.181 265.471 403.917 265.926 404.569C266.381 405.221 266.96 405.776 267.632 406.202C268.303 406.628 269.052 406.916 269.835 407.05C270.619 407.184 271.421 407.161 272.196 406.983C279.868 405.317 287.234 402.469 294.032 398.542L305.52 408.055C306.671 409.008 308.135 409.497 309.628 409.427C311.12 409.357 312.532 408.733 313.589 407.677L331.872 389.4C332.93 388.343 333.555 386.93 333.625 385.437C333.695 383.943 333.205 382.478 332.251 381.327V381.327Z" fill="#284268"/>
<path d="M280.086 315.378C278.974 314.239 277.456 313.589 275.865 313.571C274.274 313.552 272.74 314.166 271.602 315.278L250.485 335.895L240.63 326.273C239.487 325.184 237.961 324.59 236.384 324.619C234.806 324.648 233.303 325.297 232.2 326.426C231.098 327.555 230.484 329.074 230.493 330.652C230.502 332.23 231.132 333.741 232.247 334.858L246.294 348.573C247.415 349.667 248.919 350.279 250.486 350.279C252.052 350.279 253.556 349.667 254.677 348.573L279.984 323.864C280.548 323.313 280.998 322.657 281.309 321.933C281.619 321.208 281.783 320.43 281.793 319.642C281.802 318.854 281.657 318.072 281.364 317.34C281.071 316.608 280.637 315.941 280.086 315.378V315.378Z" fill="#284268"/>
<path d="M265.839 430.967H262.115V386.786C276.149 385.252 289.062 378.397 298.197 367.633C307.332 356.869 311.995 343.013 311.226 328.916C310.458 314.819 304.316 301.552 294.065 291.845C283.814 282.138 270.233 276.728 256.115 276.728C241.997 276.728 228.416 282.138 218.165 291.845C207.914 301.552 201.772 314.819 201.004 328.916C200.235 343.013 204.898 356.869 214.033 367.633C223.168 378.397 236.081 385.252 250.115 386.786V430.967H246.161C244.57 430.967 243.044 431.6 241.918 432.725C240.793 433.85 240.161 435.376 240.161 436.967V486.161C240.161 490.362 241.83 494.391 244.8 497.361C247.771 500.332 251.799 502 256 502C260.201 502 264.23 500.332 267.2 497.361C270.17 494.391 271.839 490.362 271.839 486.161V436.967C271.839 435.376 271.207 433.85 270.082 432.725C268.956 431.6 267.43 430.967 265.839 430.967ZM212.922 331.924C212.922 323.381 215.455 315.03 220.202 307.927C224.948 300.824 231.694 295.288 239.587 292.018C247.479 288.749 256.164 287.894 264.543 289.56C272.922 291.227 280.618 295.341 286.659 301.382C292.7 307.423 296.814 315.119 298.48 323.498C300.147 331.877 299.291 340.562 296.022 348.455C292.752 356.347 287.216 363.093 280.113 367.839C273.009 372.586 264.658 375.119 256.115 375.118C244.663 375.105 233.685 370.55 225.587 362.453C217.49 354.355 212.935 343.376 212.922 331.924V331.924ZM259.839 442.967V450.645H252.161V442.967H259.839ZM256 490C254.982 489.999 254.006 489.595 253.287 488.875C252.567 488.155 252.162 487.179 252.161 486.161V462.645H259.839V486.161C259.838 487.179 259.433 488.155 258.713 488.875C257.994 489.595 257.018 489.999 256 490V490Z" fill="#284268"/>
<path d="M411.68 377.459C420.023 377.448 428.124 374.659 434.705 369.533C441.287 364.406 445.973 357.233 448.025 349.147C451.07 350.744 454.474 351.536 457.911 351.447C461.349 351.358 464.707 350.392 467.666 348.64C470.625 346.888 473.087 344.408 474.817 341.437C476.548 338.466 477.49 335.101 477.554 331.663C477.619 328.224 476.802 324.827 475.184 321.793C473.565 318.759 471.197 316.19 468.305 314.329C465.414 312.467 462.094 311.377 458.662 311.16C455.23 310.943 451.8 311.608 448.697 313.09C447.212 303.779 442.272 295.371 434.864 289.539C427.455 283.708 418.121 280.883 408.722 281.628C399.323 282.372 390.55 286.631 384.151 293.556C377.752 300.48 374.198 309.562 374.197 318.99V339.98C374.21 349.917 378.163 359.443 385.19 366.469C392.217 373.495 401.743 377.447 411.68 377.459V377.459ZM457.33 323.12C458.944 323.12 460.522 323.599 461.863 324.495C463.205 325.392 464.251 326.666 464.869 328.157C465.487 329.648 465.648 331.289 465.333 332.872C465.018 334.455 464.241 335.909 463.1 337.05C461.959 338.191 460.505 338.968 458.922 339.283C457.339 339.598 455.698 339.437 454.207 338.819C452.716 338.201 451.442 337.155 450.545 335.814C449.649 334.472 449.17 332.894 449.17 331.28C449.172 329.117 450.033 327.042 451.563 325.513C453.092 323.983 455.167 323.122 457.33 323.12V323.12ZM427.182 298.778C430.191 301.083 432.647 304.031 434.371 307.406C436.095 310.782 437.043 314.499 437.146 318.288C430.207 319.143 424.655 317.198 420.565 312.482C423.745 308.452 426.004 303.774 427.182 298.778V298.778ZM411.682 293.501C413.106 293.503 414.527 293.624 415.93 293.862C415.164 299.127 412.646 303.979 408.783 307.637C405.68 310.444 402.048 312.604 398.1 313.99C394.28 315.367 390.321 316.325 386.293 316.846C386.836 310.484 389.744 304.556 394.445 300.234C399.145 295.912 405.295 293.509 411.68 293.5L411.682 293.501ZM386.2 328.962C391.696 328.362 397.1 327.11 402.3 325.233C405.591 324.024 408.736 322.452 411.677 320.544C414.467 323.738 417.922 326.283 421.8 327.999C425.678 329.715 429.885 330.561 434.125 330.477C435.125 330.477 436.143 330.42 437.171 330.335V339.975C437.129 346.706 434.425 353.148 429.651 357.892C424.876 362.637 418.418 365.3 411.687 365.3C404.955 365.3 398.497 362.637 393.722 357.892C388.948 353.148 386.244 346.706 386.202 339.975L386.2 328.962Z" fill="#284268"/>
</svg>
