<svg width="512" height="512" viewBox="0 0 512 512" fill="none" xmlns="http://www.w3.org/2000/svg">
<g clip-path="url(#clip0)">
<path d="M357.678 504.511H78.8521C70.4961 504.511 63.7231 497.737 63.7231 489.382V88.6231C63.7231 80.2671 70.4971 73.4941 78.8521 73.4941H357.678C366.034 73.4941 372.807 80.2681 372.807 88.6231V489.382C372.808 497.737 366.034 504.511 357.678 504.511Z" fill="#FAF7F7"/>
<path d="M372.805 88.6192V489.381C372.805 497.739 366.035 504.509 357.678 504.509H337.708C346.066 504.509 352.835 497.739 352.835 489.381V88.6192C352.835 80.2712 346.065 73.4912 337.708 73.4912H357.678C366.035 73.4922 372.805 80.2722 372.805 88.6192V88.6192Z" fill="#EDE1DD"/>
<path d="M248.112 48.5272V37.6132C248.112 20.9762 234.749 7.49023 218.265 7.49023C201.781 7.49023 188.418 20.9772 188.418 37.6132V48.5272H150.05C146.738 48.5272 144.053 51.2372 144.053 54.5792V92.4072C144.053 95.7502 146.738 98.4592 150.05 98.4592H286.48C289.792 98.4592 292.477 95.7492 292.477 92.4072V54.5792C292.477 51.2362 289.792 48.5272 286.48 48.5272H248.112Z" fill="#8D9CA8"/>
<path d="M248.111 37.6152V48.5292H239.054C233.027 48.5292 228.14 43.6432 228.14 37.6152C228.14 24.5152 219.852 13.3612 208.28 9.22723C211.395 8.09923 214.76 7.49023 218.265 7.49023C234.751 7.49023 248.111 20.9802 248.111 37.6152V37.6152Z" fill="#7A8C98"/>
<path d="M292.475 54.5803V92.4033C292.475 95.7483 289.789 98.4543 286.484 98.4543H266.514C269.819 98.4543 272.505 95.7483 272.505 92.4033V54.5803C272.505 51.2353 269.819 48.5293 266.514 48.5293H286.484C289.789 48.5293 292.475 51.2353 292.475 54.5803V54.5803Z" fill="#7A8C98"/>
<path d="M115.667 168.654H137.924C142.06 168.654 145.413 165.301 145.413 161.165C145.413 157.029 142.06 153.676 137.924 153.676H115.667C111.531 153.676 108.178 157.028 108.178 161.165C108.178 165.302 111.531 168.654 115.667 168.654Z" fill="black"/>
<path d="M180.505 168.654H334.335C338.471 168.654 341.824 165.301 341.824 161.165C341.824 157.029 338.471 153.676 334.335 153.676H180.505C176.369 153.676 173.016 157.028 173.016 161.165C173.016 165.302 176.369 168.654 180.505 168.654V168.654Z" fill="black"/>
<path d="M115.667 208.745H137.924C142.06 208.745 145.413 205.392 145.413 201.256C145.413 197.12 142.06 193.767 137.924 193.767H115.667C111.531 193.767 108.178 197.12 108.178 201.256C108.179 205.393 111.531 208.745 115.667 208.745Z" fill="black"/>
<path d="M180.505 208.745H334.335C338.471 208.745 341.824 205.392 341.824 201.256C341.824 197.12 338.471 193.767 334.335 193.767H180.505C176.369 193.767 173.016 197.12 173.016 201.256C173.016 205.393 176.369 208.745 180.505 208.745V208.745Z" fill="black"/>
<path d="M115.667 248.836H137.924C142.06 248.836 145.413 245.483 145.413 241.347C145.413 237.211 142.06 233.858 137.924 233.858H115.667C111.531 233.858 108.178 237.211 108.178 241.347C108.179 245.483 111.531 248.836 115.667 248.836Z" fill="black"/>
<path d="M180.505 248.836H334.335C338.471 248.836 341.824 245.483 341.824 241.347C341.824 237.211 338.471 233.858 334.335 233.858H180.505C176.369 233.858 173.016 237.211 173.016 241.347C173.016 245.483 176.369 248.836 180.505 248.836V248.836Z" fill="black"/>
<path d="M115.667 288.928H137.924C142.06 288.928 145.413 285.575 145.413 281.439C145.413 277.303 142.06 273.95 137.924 273.95H115.667C111.531 273.95 108.178 277.303 108.178 281.439C108.179 285.576 111.531 288.928 115.667 288.928Z" fill="black"/>
<path d="M180.505 288.928H334.335C338.471 288.928 341.824 285.575 341.824 281.439C341.824 277.303 338.471 273.95 334.335 273.95H180.505C176.369 273.95 173.016 277.303 173.016 281.439C173.016 285.576 176.369 288.928 180.505 288.928V288.928Z" fill="black"/>
<path d="M115.667 329.02H137.924C142.06 329.02 145.413 325.667 145.413 321.531C145.413 317.395 142.06 314.042 137.924 314.042H115.667C111.531 314.042 108.178 317.395 108.178 321.531C108.179 325.667 111.531 329.02 115.667 329.02Z" fill="black"/>
<path d="M180.505 329.02H303.871C308.007 329.02 311.36 325.667 311.36 321.531C311.36 317.395 308.007 314.042 303.871 314.042H180.505C176.369 314.042 173.016 317.395 173.016 321.531C173.016 325.667 176.369 329.02 180.505 329.02Z" fill="black"/>
<path d="M115.667 369.112H137.924C142.06 369.112 145.413 365.76 145.413 361.623C145.413 357.486 142.06 354.134 137.924 354.134H115.667C111.531 354.134 108.178 357.487 108.178 361.623C108.178 365.759 111.531 369.112 115.667 369.112Z" fill="black"/>
<path d="M180.505 369.112H263.226C267.362 369.112 270.715 365.76 270.715 361.623C270.715 357.486 267.362 354.134 263.226 354.134H180.505C176.369 354.134 173.016 357.487 173.016 361.623C173.016 365.759 176.369 369.112 180.505 369.112Z" fill="black"/>
<path d="M115.667 409.203H137.924C142.06 409.203 145.413 405.85 145.413 401.714C145.413 397.578 142.06 394.225 137.924 394.225H115.667C111.531 394.225 108.178 397.577 108.178 401.714C108.179 405.851 111.531 409.203 115.667 409.203Z" fill="black"/>
<path d="M180.505 409.203H242.188C246.324 409.203 249.677 405.85 249.677 401.714C249.677 397.578 246.324 394.225 242.188 394.225H180.505C176.369 394.225 173.016 397.577 173.016 401.714C173.016 405.851 176.369 409.203 180.505 409.203Z" fill="black"/>
<path d="M115.667 449.294H137.924C142.06 449.294 145.413 445.942 145.413 441.805C145.413 437.668 142.06 434.316 137.924 434.316H115.667C111.531 434.316 108.178 437.669 108.178 441.805C108.178 445.941 111.531 449.294 115.667 449.294Z" fill="black"/>
<path d="M180.505 449.294H235.163C239.299 449.294 242.652 445.942 242.652 441.805C242.652 437.668 239.299 434.316 235.163 434.316H180.505C176.369 434.316 173.016 437.669 173.016 441.805C173.016 445.941 176.369 449.294 180.505 449.294Z" fill="black"/>
<path d="M357.466 504.51C400.137 504.51 434.728 469.919 434.728 427.248C434.728 384.578 400.137 349.986 357.466 349.986C314.795 349.986 280.204 384.578 280.204 427.248C280.204 469.919 314.795 504.51 357.466 504.51Z" fill="#FEF0AE"/>
<path d="M434.732 427.246C434.732 469.917 400.134 504.505 357.462 504.505C340.429 504.505 324.682 498.995 311.907 489.658C320.29 492.774 329.351 494.47 338.809 494.47C381.48 494.47 416.068 459.873 416.068 417.201C416.068 391.573 403.593 368.873 384.397 354.812C413.785 365.747 434.732 394.045 434.732 427.246Z" fill="#FEE97D"/>
<path d="M365.006 464.169C364.973 464.169 364.942 464.169 364.909 464.169C360.548 464.141 356.412 462.223 353.574 458.911L323.416 423.727C318.005 417.414 318.736 407.909 325.049 402.497C331.362 397.085 340.867 397.817 346.279 404.13L365.152 426.149L421.913 361.62C427.405 355.376 436.919 354.767 443.163 360.259C449.407 365.751 450.016 375.265 444.524 381.509L376.311 459.058C373.451 462.307 369.332 464.169 365.006 464.169V464.169Z" fill="#ADE194"/>
<path d="M444.524 381.503L376.314 459.061C373.453 462.31 369.328 464.173 365.003 464.173C364.97 464.173 364.936 464.173 364.903 464.162C360.545 464.14 356.409 462.221 353.57 458.906L349.899 454.626C350.786 454.792 351.696 454.892 352.616 454.892H352.716C357.041 454.892 361.166 453.029 364.016 449.78L432.237 372.233C436.13 367.797 436.961 361.72 434.865 356.597C437.837 356.919 440.742 358.127 443.16 360.256C449.403 365.746 450.013 375.26 444.524 381.503V381.503Z" fill="#97DA7B"/>
<path d="M455.718 370.123C455.333 364.113 452.631 358.613 448.109 354.635C443.587 350.659 437.789 348.684 431.778 349.064C425.768 349.449 420.267 352.151 416.29 356.674L411.54 362.073C402.509 354.569 391.904 348.898 380.295 345.646V88.623C380.295 76.152 370.149 66.005 357.677 66.005H299.964V54.579C299.964 47.113 293.914 41.039 286.479 41.039H255.6V37.613C255.601 16.873 238.852 0 218.265 0C197.678 0 180.93 16.873 180.93 37.613V41.039H150.051C142.615 41.039 136.565 47.113 136.565 54.579V66.005H78.8531C66.3811 66.005 56.2351 76.152 56.2351 88.623V147.414C56.2351 151.55 59.5881 154.903 63.7241 154.903C67.8601 154.903 71.2131 151.55 71.2131 147.414V88.623C71.2131 84.41 74.6401 80.982 78.8531 80.982H136.566V92.408C136.566 99.874 142.616 105.949 150.052 105.949H286.48C293.916 105.949 299.965 99.874 299.965 92.408V80.982H357.678C361.891 80.982 365.318 84.409 365.318 88.623V342.875C362.731 342.636 360.114 342.498 357.465 342.498C345.359 342.498 333.664 344.999 322.706 349.933C318.935 351.631 317.254 356.064 318.952 359.836C320.65 363.607 325.083 365.29 328.855 363.59C337.867 359.533 347.493 357.475 357.465 357.475C374.225 357.475 389.618 363.421 401.659 373.307L365.224 414.728L351.964 399.257C348.045 394.685 342.58 391.912 336.575 391.449C330.575 390.994 324.745 392.892 320.174 396.811C310.735 404.9 309.638 419.161 317.728 428.601L347.886 463.785C352.139 468.747 358.326 471.617 364.907 471.658H365.004C371.484 471.658 377.654 468.868 381.932 464.003L425.955 413.955C426.794 418.259 427.238 422.702 427.238 427.249C427.238 465.723 395.938 497.023 357.464 497.023C318.99 497.023 287.691 465.723 287.691 427.249C287.691 410.887 293.469 394.981 303.96 382.461C306.616 379.291 306.2 374.568 303.03 371.911C299.859 369.253 295.136 369.67 292.48 372.84C279.733 388.051 272.713 407.373 272.713 427.248C272.713 456.157 287.272 481.719 309.432 497.022H78.8531C74.6401 497.022 71.2131 493.594 71.2131 489.381V181.595C71.2131 177.459 67.8601 174.106 63.7241 174.106C59.5881 174.106 56.2351 177.459 56.2351 181.595V489.381C56.2351 501.853 66.3811 512 78.8531 512H357.467C404.199 512 442.219 473.98 442.219 427.249C442.219 417.88 440.665 408.874 437.842 400.445L450.148 386.455C454.125 381.932 456.103 376.132 455.718 370.123V370.123ZM284.988 90.971H151.543V56.016H188.419C192.555 56.016 195.908 52.663 195.908 48.527V37.613C195.908 25.132 205.937 14.978 218.266 14.978C230.594 14.978 240.624 25.132 240.624 37.613V48.528C240.624 52.664 243.977 56.017 248.113 56.017H284.989V90.971H284.988ZM438.902 376.563C438.902 376.563 370.694 454.105 370.688 454.111C367.495 457.741 362.377 457.668 359.26 454.037C359.251 454.026 329.103 418.853 329.103 418.853C326.387 415.685 326.755 410.898 329.924 408.181C333.265 405.317 337.7 405.742 340.594 409.003L359.467 431.022C360.879 432.669 362.935 433.624 365.105 433.637C367.302 433.671 369.343 432.723 370.776 431.094L427.537 366.565C428.872 365.047 430.718 364.14 432.735 364.011C434.749 363.884 436.699 364.546 438.217 365.881C439.735 367.216 440.642 369.062 440.771 371.079C440.901 373.098 440.236 375.044 438.902 376.563V376.563Z" fill="black"/>
</g>
<defs>
<clipPath id="clip0">
<rect width="512" height="512" fill="white"/>
</clipPath>
</defs>
</svg>
