<svg width="76" height="76" viewBox="0 0 76 76" fill="none" xmlns="http://www.w3.org/2000/svg">
<circle cx="38" cy="38" r="38" fill="white"/>
<path d="M25.5159 14.7744L17.7739 22.5163V61.226H54.9352V14.7744H25.5159Z" fill="#E6E9ED"/>
<path d="M25.5159 14.7744V22.5164H17.7739L25.5159 14.7744Z" fill="#FCD770"/>
<path d="M51.8386 20.9674V27.1609C51.8386 28.8719 50.4528 30.2577 48.7418 30.2577H31.7096C29.9986 30.2577 28.6128 28.8719 28.6128 27.1609V20.9674C28.6128 19.2564 29.9986 17.8706 31.7096 17.8706H48.7418C50.4528 17.8706 51.8386 19.2564 51.8386 20.9674Z" fill="#FFEAA7"/>
<path d="M38.677 22.5156H41.7738V25.6124H38.677V22.5156Z" fill="#B4DD7F"/>
<path d="M45.6445 22.5156H48.7413V25.6124H45.6445V22.5156Z" fill="#B4DD7F"/>
<path d="M31.7095 22.5156H34.8062V25.6124H31.7095V22.5156Z" fill="#B4DD7F"/>
<path d="M29.3327 50.8354C29.8589 51.5861 30.1609 52.4998 30.1609 53.4831C30.1609 56.0457 28.0784 58.1282 25.5158 58.1282C22.9531 58.1282 20.8706 56.0457 20.8706 53.4831C20.8706 50.9204 22.9531 48.8379 25.5158 48.8379C27.0952 48.8379 28.4965 49.6276 29.3327 50.8354Z" fill="#B4DD7F"/>
<path d="M29.3327 36.9003C29.8589 37.6511 30.1609 38.5648 30.1609 39.548C30.1609 42.1106 28.0784 44.1932 25.5158 44.1932C22.9531 44.1932 20.8706 42.1106 20.8706 39.548C20.8706 36.9854 22.9531 34.9028 25.5158 34.9028C27.0952 34.9028 28.4965 35.6925 29.3327 36.9003Z" fill="#B4DD7F"/>
<path d="M61.6626 44.4028L49.5156 56.5498L47.5801 54.6143L59.7271 42.4673L61.6626 44.4028Z" fill="#B4DD7F"/>
<path d="M59.7278 42.4672L47.5807 54.6143L45.6453 52.6788L54.9356 43.3885V43.3809L57.7923 40.5317L59.7278 42.4672Z" fill="#FF826E"/>
<path d="M49.5163 56.5502L44.0969 58.1296L45.6453 52.6792L49.5163 56.5502Z" fill="#F0D0B4"/>
<path d="M64.2261 40.7019C64.2261 41.4288 63.9395 42.1263 63.4209 42.6373L61.6634 44.4016L57.7925 40.5306L59.5499 38.7664C60.0686 38.2553 60.7653 37.9688 61.4854 37.9688C62.2441 37.9688 62.9253 38.2784 63.4209 38.7664C63.9165 39.2616 64.2261 39.9507 64.2261 40.7019Z" fill="#FFEAA7"/>
<path d="M65 40.7051C65 38.7689 63.4251 37.1933 61.4889 37.1933C60.5514 37.1933 59.6699 37.5588 59.006 38.2223L55.7097 41.5186V14H25.1956L17 22.1956V62H55.7097V51.4501L63.9718 43.188C64.6344 42.5253 65 41.6434 65 40.7051ZM46.03 54.1568L48.0445 56.1712L45.2248 56.9942L46.03 54.1568ZM49.5161 55.4526L48.6762 54.6126L59.7292 43.5588L60.5699 44.3996L49.5161 55.4526ZM47.5806 53.5179L46.7399 52.6772L57.7945 41.6234L58.6352 42.4641L47.5806 53.5179ZM24.7419 16.6431V21.7419H19.6431L24.7419 16.6431ZM54.1613 60.4516H18.5484V23.2903H26.2903V15.5484H54.1613V43.067L44.9553 52.2723L42.9695 59.2646L49.9233 57.2365L54.1613 52.9985V60.4516ZM62.877 42.0932L61.6654 43.3048L58.8892 40.5286L60.1008 39.317C60.4716 38.9462 60.965 38.7417 61.4889 38.7417C62.5704 38.7417 63.4516 39.6229 63.4516 40.7051C63.4516 41.2298 63.2471 41.7232 62.877 42.0932Z" fill="black"/>
<path d="M32.6851 45.9951L29.3532 49.6608C28.3707 48.6753 27.0136 48.0644 25.5163 48.0644C22.5288 48.0644 20.0969 50.4963 20.0969 53.4838C20.0969 56.4713 22.5288 58.9031 25.5163 58.9031C28.5038 58.9031 30.9356 56.4713 30.9356 53.4838C30.9356 52.5603 30.7028 51.6908 30.293 50.9291L33.8313 47.037L32.6851 45.9951ZM29.3872 53.4838C29.3872 55.6181 27.6506 57.3547 25.5163 57.3547C23.382 57.3547 21.6453 55.6181 21.6453 53.4838C21.6453 51.3495 23.382 49.6128 25.5163 49.6128C26.6133 49.6128 27.6003 50.0766 28.3057 50.8127L25.3915 54.0187L23.6235 52.8404L22.7646 54.1287L25.6418 56.0472L29.1487 52.1894C29.2935 52.5958 29.3872 53.0271 29.3872 53.4838V53.4838Z" fill="black"/>
<path d="M29.3532 35.7253C28.3707 34.7398 27.0136 34.1289 25.5163 34.1289C22.5288 34.1289 20.0969 36.5607 20.0969 39.5482C20.0969 42.5358 22.5288 44.9676 25.5163 44.9676C28.5038 44.9676 30.9356 42.5358 30.9356 39.5482C30.9356 38.6247 30.7028 37.7553 30.293 36.9935L33.8313 33.1014L32.6851 32.0596L29.3532 35.7253ZM29.3872 39.5482C29.3872 41.6826 27.6506 43.4192 25.5163 43.4192C23.382 43.4192 21.6453 41.6826 21.6453 39.5482C21.6453 37.4139 23.382 35.6773 25.5163 35.6773C26.6133 35.6773 27.6003 36.1411 28.3057 36.8771L25.3915 40.0831L23.6235 38.9048L22.7646 40.1931L25.6418 42.1116L29.1487 38.2539C29.2935 38.6603 29.3872 39.0916 29.3872 39.5482V39.5482Z" fill="black"/>
<path d="M51.0647 38.7744H52.6131V40.3228H51.0647V38.7744Z" fill="black"/>
<path d="M34.0325 38.7744H49.5163V40.3228H34.0325V38.7744Z" fill="black"/>
<path d="M34.0325 35.6777H52.6131V37.2261H34.0325V35.6777Z" fill="black"/>
<path d="M34.0325 41.8706H52.6131V43.419H34.0325V41.8706Z" fill="black"/>
<path d="M34.0325 52.7095H42.5486V54.2579H34.0325V52.7095Z" fill="black"/>
<path d="M34.0325 55.8062H42.5486V57.3545H34.0325V55.8062Z" fill="black"/>
<path d="M34.0325 49.6128H42.5486V51.1612H34.0325V49.6128Z" fill="black"/>
<path d="M31.7098 31.0322H48.7421C50.8764 31.0322 52.6131 29.2955 52.6131 27.1612V20.9676C52.6131 18.8333 50.8764 17.0967 48.7421 17.0967H31.7098C29.5755 17.0967 27.8389 18.8333 27.8389 20.9676V27.1612C27.8389 29.2955 29.5755 31.0322 31.7098 31.0322ZM29.3873 20.9676C29.3873 19.6873 30.4295 18.6451 31.7098 18.6451H48.7421C50.0225 18.6451 51.0647 19.6873 51.0647 20.9676V27.1612C51.0647 28.4416 50.0225 29.4838 48.7421 29.4838H31.7098C30.4295 29.4838 29.3873 28.4416 29.3873 27.1612V20.9676Z" fill="black"/>
<path d="M49.5163 21.7422H44.8711V26.3873H49.5163V21.7422ZM47.9679 24.839H46.4195V23.2906H47.9679V24.839Z" fill="black"/>
<path d="M42.5482 21.7422H37.9031V26.3873H42.5482V21.7422ZM40.9999 24.839H39.4515V23.2906H40.9999V24.839Z" fill="black"/>
<path d="M35.5805 21.7422H30.9353V26.3873H35.5805V21.7422ZM34.0321 24.839H32.4837V23.2906H34.0321V24.839Z" fill="black"/>
</svg>
