<svg width="48" height="48" viewBox="0 0 48 48" fill="none" xmlns="http://www.w3.org/2000/svg">
<path d="M14.3614 47.1729L2.64286 43.2191C1.06107 42.6664 0 41.1603 0 39.4728V3.9417C0 1.34185 2.49857 -0.634142 5.14357 0.18922L16.8618 4.14302C18.4436 4.69566 19.5046 6.20178 19.5046 7.88935V43.4204C19.5046 45.5977 17.7554 47.3684 15.6039 47.3684C15.1864 47.3684 14.7904 47.3073 14.3614 47.1729ZM2.92571 3.9417V39.4728C2.92571 39.8931 3.20286 40.2838 3.58286 40.4183L15.2529 44.3562C15.8868 44.5495 16.5789 44.0898 16.5789 43.4204V7.88935C16.5789 7.46899 16.3021 7.07828 15.9218 6.94382L4.25 3.00809C4.13321 2.9705 4.02393 2.9546 3.90107 2.9546C3.3625 2.9546 2.92571 3.39664 2.92571 3.9417Z" fill="white"/>
<path d="M45.8755 22.3439H26.9646C26.1405 22.3439 25.4717 21.6432 25.4717 20.7799C25.4717 19.9165 26.1405 19.2158 26.9646 19.2158H45.8755C46.6996 19.2158 47.3684 19.9165 47.3684 20.7799C47.3684 21.6432 46.6996 22.3439 45.8755 22.3439Z" fill="#00E15F"/>
<path d="M38.5581 29.4935C38.1821 29.4935 37.8065 29.3485 37.5205 29.0569C36.947 28.4747 36.947 27.5316 37.5205 26.9498L43.8238 20.556L37.5205 14.1619C36.947 13.5801 36.947 12.637 37.5205 12.0552C38.0943 11.4731 39.0241 11.4731 39.5976 12.0552L46.9383 19.5016C47.5118 20.0834 47.5118 21.0265 46.9383 21.6083L39.5976 29.0547C39.3097 29.3485 38.9341 29.4935 38.5581 29.4935Z" fill="#00E15F"/>
<path d="M15.6039 47.3684C15.1864 47.3684 14.7904 47.3092 14.3946 47.1848L2.65643 43.2276C1.05929 42.6631 0 41.1572 0 39.4738V3.94749C0 1.77046 1.74964 0 3.90107 0C4.31821 0 4.71429 0.0592684 5.11036 0.183587L16.8482 4.14083C18.4457 4.70533 19.5046 6.21125 19.5046 7.89462V43.4209C19.5046 45.598 17.7554 47.3684 15.6039 47.3684ZM3.90107 2.96053C3.36464 2.96053 2.92571 3.40468 2.92571 3.94749V39.4738C2.92571 39.8941 3.20464 40.2848 3.6025 40.425L15.2857 44.3645C15.3696 44.392 15.4789 44.4079 15.6039 44.4079C16.1404 44.4079 16.5789 43.9637 16.5789 43.4209V7.89462C16.5789 7.47432 16.3 7.08365 15.9021 6.94343L4.21893 3.00389C4.135 2.97643 4.02571 2.96053 3.90107 2.96053Z" fill="white"/>
<path d="M30.5559 15.3251C29.7347 15.3251 29.0683 14.6814 29.0683 13.8884V5.26807C29.0683 3.94816 27.9558 2.87343 26.5891 2.87343H4.27428C3.45309 2.87343 2.78662 2.22978 2.78662 1.43672C2.78662 0.643646 3.45309 0 4.27428 0H26.5891C29.5982 0 32.0436 2.36202 32.0436 5.26807V13.8884C32.0436 14.6814 31.3771 15.3251 30.5559 15.3251Z" fill="white"/>
<path d="M26.4244 41.7956H18.2508C17.4048 41.7956 16.7183 41.1227 16.7183 40.2936C16.7183 39.4645 17.4048 38.7916 18.2508 38.7916H26.4244C27.8323 38.7916 28.9783 37.668 28.9783 36.2881V27.2759C28.9783 26.4468 29.6649 25.7739 30.5108 25.7739C31.3568 25.7739 32.0433 26.4468 32.0433 27.2759V36.2881C32.0433 39.3262 29.5242 41.7956 26.4244 41.7956Z" fill="white"/>
</svg>
