<svg width="52" height="46" viewBox="0 0 52 46" fill="none" xmlns="http://www.w3.org/2000/svg">
<path d="M48.4644 0H3.45597C2.6966 0.000839337 1.96858 0.302869 1.43162 0.839824C0.894666 1.37678 0.592636 2.10481 0.591797 2.86418V36.4159C0.592636 37.1753 0.894666 37.9033 1.43162 38.4403C1.96858 38.9772 2.6966 39.2793 3.45597 39.2801H19.0228L18.0408 41.7351H13.6852C13.4681 41.7351 13.26 41.8213 13.1065 41.9748C12.953 42.1283 12.8668 42.3364 12.8668 42.5535V45.0085C12.8668 45.2255 12.953 45.4336 13.1065 45.5871C13.26 45.7406 13.4681 45.8268 13.6852 45.8268H38.2352C38.4523 45.8268 38.6604 45.7406 38.8139 45.5871C38.9674 45.4336 39.0536 45.2255 39.0536 45.0085V42.5535C39.0536 42.3364 38.9674 42.1283 38.8139 41.9748C38.6604 41.8213 38.4523 41.7351 38.2352 41.7351H33.8797L32.8976 39.2801H48.4644C49.2238 39.2793 49.9518 38.9772 50.4888 38.4403C51.0257 37.9033 51.3278 37.1753 51.3286 36.4159V2.86418C51.3278 2.10481 51.0257 1.37678 50.4888 0.839824C49.9518 0.302869 49.2238 0.000839337 48.4644 0ZM37.4169 43.3718V44.1901H14.5035V43.3718H37.4169ZM19.8043 41.7351L20.7863 39.2801H31.1341L32.1161 41.7351H19.8043ZM49.6919 36.4159C49.6917 36.7414 49.5623 37.0535 49.3321 37.2836C49.102 37.5138 48.7899 37.6432 48.4644 37.6434H3.45597C3.1305 37.6432 2.81844 37.5138 2.5883 37.2836C2.35815 37.0535 2.22874 36.7414 2.22847 36.4159V34.3701H49.6919V36.4159ZM49.6919 32.7334H2.22847V2.86418C2.22874 2.5387 2.35815 2.22664 2.5883 1.9965C2.81844 1.76636 3.1305 1.63694 3.45597 1.63667H48.4644C48.7899 1.63694 49.102 1.76636 49.3321 1.9965C49.5623 2.22664 49.6917 2.5387 49.6919 2.86418V32.7334Z" fill="white"/>
<path d="M23.375 6H7.625C6.92904 6.00072 6.26181 6.26125 5.76969 6.72442C5.27758 7.18759 5.00077 7.81557 5 8.47059V27.5294C5.00077 28.1844 5.27758 28.8124 5.76969 29.2756C6.26181 29.7388 6.92904 29.9993 7.625 30H23.375C24.071 29.9993 24.7382 29.7388 25.2303 29.2756C25.7224 28.8124 25.9992 28.1844 26 27.5294V8.47059C25.9992 7.81557 25.7224 7.18759 25.2303 6.72442C24.7382 6.26125 24.071 6.00072 23.375 6ZM21.5 28.5882H20V25.7647C20 25.5775 19.921 25.398 19.7803 25.2656C19.6397 25.1332 19.4489 25.0588 19.25 25.0588C19.0511 25.0588 18.8603 25.1332 18.7197 25.2656C18.579 25.398 18.5 25.5775 18.5 25.7647V28.5882H12.5V25.7647C12.5 25.5775 12.421 25.398 12.2803 25.2656C12.1397 25.1332 11.9489 25.0588 11.75 25.0588C11.5511 25.0588 11.3603 25.1332 11.2197 25.2656C11.079 25.398 11 25.5775 11 25.7647V28.5882H9.5V25.0588C9.50089 24.3102 9.81725 23.5925 10.3797 23.0632C10.9421 22.5339 11.7046 22.2361 12.5 22.2353H13.3794C13.5343 22.6481 13.8215 23.0056 14.2013 23.2584C14.5811 23.5112 15.0348 23.647 15.5 23.647C15.9652 23.647 16.4189 23.5112 16.7987 23.2584C17.1785 23.0056 17.4657 22.6481 17.6206 22.2353H18.5C19.2954 22.2361 20.0579 22.5339 20.6203 23.0632C21.1828 23.5925 21.4991 24.3102 21.5 25.0588V28.5882ZM13.0953 15.2012C14.3084 15.2012 16.1834 14.9947 18.5 14.0726V16.5882C18.5 17.3371 18.1839 18.0553 17.6213 18.5848C17.0587 19.1143 16.2956 19.4118 15.5 19.4118C14.7044 19.4118 13.9413 19.1143 13.3787 18.5848C12.8161 18.0553 12.5 17.3371 12.5 16.5882V15.1835C12.6762 15.1941 12.8741 15.2012 13.0953 15.2012ZM12.5 13.7682V13.7647C12.5009 13.0161 12.8173 12.2984 13.3797 11.7691C13.9421 11.2398 14.7046 10.942 15.5 10.9412C16.6859 10.9412 17.7369 11.6506 18.2197 12.6476C16.3597 13.4276 14.8334 13.6862 13.8406 13.7612C13.3946 13.7961 12.9464 13.7985 12.5 13.7682ZM16.25 20.7635V21.5294C16.25 21.7166 16.171 21.8962 16.0303 22.0285C15.8897 22.1609 15.6989 22.2353 15.5 22.2353C15.3011 22.2353 15.1103 22.1609 14.9697 22.0285C14.829 21.8962 14.75 21.7166 14.75 21.5294V20.7635C15.2464 20.8435 15.7536 20.8435 16.25 20.7635ZM24.5 27.5294C24.4998 27.8102 24.3811 28.0793 24.1702 28.2779C23.9593 28.4764 23.6733 28.588 23.375 28.5882H23V25.0588C22.9987 23.9359 22.5242 22.8593 21.6806 22.0653C20.8369 21.2713 19.6931 20.8247 18.5 20.8235H17.75V20.2535C18.4336 19.8819 19.0014 19.3477 19.3963 18.7043C19.7912 18.061 19.9994 17.3312 20 16.5882V13.7647C20 13.7444 19.9991 13.725 19.9972 13.7047C19.9583 12.6246 19.4926 11.597 18.6912 10.8229C18.2801 10.4152 17.7852 10.0904 17.2366 9.868C16.6881 9.64565 16.0973 9.53046 15.5 9.52941C14.3069 9.5306 13.1631 9.9772 12.3194 10.7712C11.4758 11.5652 11.0013 12.6418 11 13.7647V16.5882C11.0006 17.3312 11.2088 18.061 11.6037 18.7043C11.9986 19.3477 12.5664 19.8819 13.25 20.2535V20.8235H12.5C11.3069 20.8247 10.1631 21.2713 9.31942 22.0653C8.47578 22.8593 8.00127 23.9359 8 25.0588V28.5882H7.625C7.32671 28.588 7.0407 28.4764 6.82978 28.2779C6.61885 28.0793 6.50025 27.8102 6.5 27.5294V8.47059C6.50025 8.18984 6.61885 7.92066 6.82978 7.72215C7.0407 7.52363 7.32671 7.412 7.625 7.41176H23.375C23.6733 7.412 23.9593 7.52363 24.1702 7.72215C24.3811 7.92066 24.4998 8.18984 24.5 8.47059V27.5294Z" fill="#00E15F"/>
<rect x="30.563" y="12.1035" width="14.73" height="1.63667" rx="0.818336" fill="#00E15F"/>
<rect x="30.563" y="16.605" width="14.73" height="1.63667" rx="0.818336" fill="#00E15F"/>
<rect x="30.563" y="21.106" width="14.73" height="1.63667" rx="0.818336" fill="#00E15F"/>
</svg>
